{ 
 "cartId": "150499",
 "cartItems":[ {  
         "skuId":"12421432",
         "quantity":{QuantityDP},
         "productId":"prd93499,
         "registryInfo": {
        "registryID": "21212",
        "registryName": "Amit",
        "registryType": "Baby",
        "registryShipToID": 152027,
        "affiliateId": "abcdef",
        "affiliateType": "abcdef"
      }}]}
