{
    "payload": {
      "profile": {
        "customerName": {
          "firstName": "{FirstNam}",
          "lastName": "{LastNam}"
        },
        "email": "{EMailID}",
        "password": "KohlsPerf01",
       
        "preferences":{
        "saleAlerts":false
        }
      }
    }
  }
