{
"payload": {
"profile": {
"birthday":"2017-01-01",
"linkLoyalty": true,
"loyaltyId":"81129591541",
"customerName": {
"firstName": "FL{FirstNam}",
"lastName": "{LastNam}"
},
"email": "{EMailID}@bh.exacttarget.com",
"password": "KohlsPerf123",
"preferences":{
"saleAlerts":false
}
}
}
}
