{
  "payload": {
    "subscriber": {
      "email": "{EMailID}@bh.exacttarget.com",
      "address": {
        "firstName": "{FirstName}",
        "lastName": "{LastName}",
        "addr1": "123 Main St.",
        "addr2": "Apt 191",
        "city": "Waukesha",
        "state": "WI",
        "postalCode": "53188",
        "phoneNumber": "2627033000"
      }
    }
  }
}
