{
"profileId":"45345345345345",
"channel":"SNAP",
"agentTkId":"TKXXX00",
"firstName":"John",
"lastName":"Smith",
"email":"{EMail}@bh.exacttarget.com",
"phoneNumber":"7896787654",
"phoneNumberType":"Mobile”,
"billingAddress":{
"firstName":"John",
"lastName":"Smith",
"phoneNumber":"7896787654",
"addr1":"620 N McArthy Blvd",
"addr2":"Appt 304",
"city":"Milpitas",
"county":"00",
"state":"CA",
"postalCode":"95035",
}
}
