{  
	"cartId": "{CartIdSP}",
   "cartItems":[  
      {  
         "skuId":"{SkuIDSP}",
         "quantity":1,
         "productId":"{ProductIdSP}",
         "shipMethod":"STD",
          "addressId":"{ShippingIdSP}"
         
      }
   ]
}
