--Request 
POST https://1.rome.api.flipkart.com/api/1/fdp
Host: 1.rome.api.flipkart.com
sec-ch-ua: \" Not A;Brand\";v=\"99\", \"Chromium\";v=\"90\"
X-User-Agent: Mozilla/5.0 (Windows NT 10.0; Win64; x64) AppleWebKit/537.36 (KHTML, like Gecko) Chrome/90.0.4430.93 Safari/537.36 FKUA/website/42/website/Desktop
sec-ch-ua-mobile: ?0
User-Agent: Mozilla/5.0 (Windows NT 10.0; Win64; x64) AppleWebKit/537.36 (KHTML, like Gecko) Chrome/90.0.4430.93 Safari/537.36
Content-Type: application/json
Accept: */*
Origin: https://www.flipkart.com
Sec-Fetch-Site: same-site
Sec-Fetch-Mode: cors
Sec-Fetch-Dest: empty
Referer: https://www.flipkart.com/
Accept-Encoding: gzip, deflate, br
Accept-Language: en-US,en;q=0.9
Cookie: T=TI164818842216200180224434770721730017262782886130882680036219971948; Network-Type=4g; pxcts=ccf641b1-ac01-11ec-a8de-68696d704d4a; _pxvid=ccf62de1-ac01-11ec-a8de-68696d704d4a; AMCVS_17EB401053DAF4840A490D4C%40AdobeOrg=1; AMCV_17EB401053DAF4840A490D4C%40AdobeOrg=-227196251%7CMCIDTS%7C19077%7CMCMID%7C84290952911474648655406836606388072339%7CMCAAMLH-1648793228%7C12%7CMCAAMB-1648793228%7C6G1ynYcLPuiQxYZrsz_pkqfLG9yMXBpb2zX5dvJdYQJzPXImdj0y%7CMCOPTOUT-1648195629s%7CNONE%7CMCAID%7CNONE; _px3=7738b7a29c3aa3715defa11367900ae1ad8c0ada548da5e0ed3243dd62bd0b2b:LTZ6D8ARhgyh1MMeb5t7E+gfk0YVum5pPVv/LygmZfMuADlkyNUpO8uAjpR+bCod/MfDe8UYlfZw6tdlUmDyUw==:1000:U7bUOOmkfSc4W/DsxAPm7tT75XOGwEa8HPHQLAiLHd4LzFQlNNkfq/dpC4Wr23lLF8YF8eCGjoTC+TbNjfTZHKx9T0lSpc7iftvhNOmn3OnFFIqmtHIsWAnhzaGU4SA2OmzDFpDZJ3s28gWh05oC81K+rKA1pzbHpzKsZOQR4DbuoezqdzjLwXnRZ4+nwl37Rdza326GFYIkZvNtdscuWg==; s_sq=flipkart-prd%3D%2526pid%253Dwww.flipkart.com%25253A%2526pidt%253D1%2526oid%253DfunctionEr%252528%252529%25257B%25257D%2526oidt%253D2%2526ot%253DSUBMIT; S=d1t17FnE/TV9+PxRBP3w/Az8/P/xMN7BHlUfXIXt52061CYNokb291Bq97otbURA2IX0oMlEBUE5Rvv2G1+W2rUOrmw==; SN=VI67A54AEFB9EA4D449CD35DC8C7A1990D.TOK4AA1E8AEC9A74269BBEF1F63E28FC891.1648188606.LI
----
 POSTDATA [{"nc":{"ssid":null,"ppt":"hp","ppn":"homepage","mpid":"FLIPKART","pn":"browse","pt":"browse","ss":"BrowsePageContext","iid":"b7ef5489-bb27-4b14-b063-de3d35cf7460.SRTFTFCBRKGYTQEF.SEARCH","fm":"organic","sqid":"jd30bwq6v40000001648188463307"},"e":[{"en":"LRE","erc":null,"iss":true,"lid":"7683831142","fid":"WEBSITE-LOGIN","t":1648188606318}]}]
--Response 
HTTP/1.1 400 Bad Request
Server: nginx
Date: Fri, 25 Mar 2022 06:10:06 GMT
Content-Type: application/json
Content-Length: 0
Access-Control-Allow-Origin: https://www.flipkart.com
Access-Control-Allow-Credentials: true
x-e-id: 10.34.197.223
----

