--Request 
POST https://2.rome.api.flipkart.com/api/1/fdp
Host: 2.rome.api.flipkart.com
sec-ch-ua: \" Not A;Brand\";v=\"99\", \"Chromium\";v=\"90\"
X-User-Agent: Mozilla/5.0 (Windows NT 10.0; Win64; x64) AppleWebKit/537.36 (KHTML, like Gecko) Chrome/90.0.4430.93 Safari/537.36 FKUA/website/42/website/Desktop
sec-ch-ua-mobile: ?0
User-Agent: Mozilla/5.0 (Windows NT 10.0; Win64; x64) AppleWebKit/537.36 (KHTML, like Gecko) Chrome/90.0.4430.93 Safari/537.36
Content-Type: application/json
Accept: */*
Origin: https://www.flipkart.com
Sec-Fetch-Site: same-site
Sec-Fetch-Mode: cors
Sec-Fetch-Dest: empty
Referer: https://www.flipkart.com/
Accept-Encoding: gzip, deflate, br
Accept-Language: en-US,en;q=0.9
Cookie: T=TI164818842216200180224434770721730017262782886130882680036219971948; Network-Type=4g; pxcts=ccf641b1-ac01-11ec-a8de-68696d704d4a; _pxvid=ccf62de1-ac01-11ec-a8de-68696d704d4a; AMCVS_17EB401053DAF4840A490D4C%40AdobeOrg=1; AMCV_17EB401053DAF4840A490D4C%40AdobeOrg=-227196251%7CMCIDTS%7C19077%7CMCMID%7C84290952911474648655406836606388072339%7CMCAAMLH-1648793228%7C12%7CMCAAMB-1648793228%7C6G1ynYcLPuiQxYZrsz_pkqfLG9yMXBpb2zX5dvJdYQJzPXImdj0y%7CMCOPTOUT-1648195629s%7CNONE%7CMCAID%7CNONE; SN=VI67A54AEFB9EA4D449CD35DC8C7A1990D.TOK4AA1E8AEC9A74269BBEF1F63E28FC891.1648188614.LI; _px3=677f4dc72ffc891f89aaaa216f7c763b3181a728fbffd611b6a4403e3711c032:6bnFkPjtQagFZI2T+IibjFjhg82Lzc1QfglGOLNbpKbywhPnYs7PNTXwJ4WqHgS7KIBj01zhtD65tsubCw1vfw==:1000:nirQs/0Jt6+o7K5QRAq8dl0AS4Sfujzxl2yQMO1PXbFnWsfF/TOkJB6cJdVEZsn1lB70LQ1eewskhMmg5Twe70/dv+VRUc0510c7/E37wvEnLIHkYErcCSkAffV5vJDvtTax5SfJrnjrbJeyQ/PkEQZE1kHLb+lwU7lK7ni2oYdmapoVW8XDiy+HyogVdzt5kp2xfgjnw3FNjSnlugnIYQ==; s_sq=flipkart-prd%3D%2526pid%253Dwww.flipkart.com%25253Aroadster-slim-men-dark-blue-jeans%25253Ap%25253Aitmfgps8dzzzu8ft%2526pidt%253D1%2526oid%253DfunctionEr%252528%252529%25257B%25257D%2526oidt%253D2%2526ot%253DSUBMIT; S=d1t17P3M/Jz81Pz8/FDo/PzFUHVwC2ZWSUZ5VGmPAgbiz+NdlwB/ujluldeWompsr2mSRHM5OTSb0tJ4R3JqxvQjwjQ==
----
 POSTDATA [{"nc":{"ssid":"9c1lkfudog0000001648188608609","iid":"bcdc8e78-74d9-4648-84fb-07767b41231c.JEAFGBPWMNBDDXGU.SEARCH","fm":"organic","pn":"CART_PAGE","pt":"dynamic","ppt":"pp","ppn":"pp","mpid":"FLIPKART","ss":"BasePageContext"},"e":[{"en":"TIE","tp":"search_autosuggest","iid":"15vtdfyvgg0000001648188616379","te":"","ua":1,"t":1648188648392},{"en":"TIE","tp":"search_autosuggest","iid":"15vtdfyvgg0000001648188616379","te":"li","ua":5,"t":1648188651963},{"en":"TIE","tp":"search_autosuggest","iid":"15vtdfyvgg0000001648188616379","te":"lip","ua":5,"t":1648188652252},{"en":"TIE","tp":"search_autosuggest","iid":"15vtdfyvgg0000001648188616379","te":"lips","ua":5,"t":1648188652610},{"en":"TIE","tp":"search_autosuggest","iid":"15vtdfyvgg0000001648188616379","te":"lipst","ua":5,"t":1648188652922},{"en":"TIE","tp":"search_autosuggest","iid":"15vtdfyvgg0000001648188616379","te":"lipstic","ua":5,"t":1648188653647},{"en":"TIE","tp":"search_autosuggest","iid":"15vtdfyvgg0000001648188616379","te":"lipstick","ua":5,"t":1648188653926},{"en":"TIE","tp":"search_autosuggest","iid":"15vtdfyvgg0000001648188616379","te":"lipstick","ua":4,"t":1648188654478},{"en":"TIE","tp":"search_autosuggest","iid":"15vtdfyvgg0000001648188616379","te":"lipstick","ua":2,"t":1648188654479}]}]
--Response 
HTTP/1.1 200 OK
Server: nginx
Date: Fri, 25 Mar 2022 06:10:54 GMT
Content-Type: application/json
Content-Length: 0
Access-Control-Allow-Origin: https://www.flipkart.com
Access-Control-Allow-Credentials: true
x-e-id: 10.51.178.16
----

