--Request 
POST https://rome.api.flipkart.com/api/1/fdp
Host: rome.api.flipkart.com
sec-ch-ua: \" Not A;Brand\";v=\"99\", \"Chromium\";v=\"90\"
X-User-Agent: Mozilla/5.0 (Windows NT 10.0; Win64; x64) AppleWebKit/537.36 (KHTML, like Gecko) Chrome/90.0.4430.93 Safari/537.36 FKUA/website/42/website/Desktop
sec-ch-ua-mobile: ?0
User-Agent: Mozilla/5.0 (Windows NT 10.0; Win64; x64) AppleWebKit/537.36 (KHTML, like Gecko) Chrome/90.0.4430.93 Safari/537.36
Content-Type: application/json
Accept: */*
Origin: https://www.flipkart.com
Sec-Fetch-Site: same-site
Sec-Fetch-Mode: cors
Sec-Fetch-Dest: empty
Referer: https://www.flipkart.com/
Accept-Encoding: gzip, deflate, br
Accept-Language: en-US,en;q=0.9
Cookie: T=TI164818842216200180224434770721730017262782886130882680036219971948; Network-Type=4g; pxcts=ccf641b1-ac01-11ec-a8de-68696d704d4a; _pxvid=ccf62de1-ac01-11ec-a8de-68696d704d4a; AMCVS_17EB401053DAF4840A490D4C%40AdobeOrg=1; AMCV_17EB401053DAF4840A490D4C%40AdobeOrg=-227196251%7CMCIDTS%7C19077%7CMCMID%7C84290952911474648655406836606388072339%7CMCAAMLH-1648793228%7C12%7CMCAAMB-1648793228%7C6G1ynYcLPuiQxYZrsz_pkqfLG9yMXBpb2zX5dvJdYQJzPXImdj0y%7CMCOPTOUT-1648195629s%7CNONE%7CMCAID%7CNONE; _px3=70861fb958bccc2f31601e8ddaaf3105fbd3a14836db0680b23d16e1f2aae7be:GwiIBTszTlWChY2fldDuvL6aiUtpszEDAVL3ZanSV1ZZraWraWMhat5fCcC7Lm0fIiBHN14mVlMSPzkcsJUVEA==:1000:QEMtz4SDELmdeU7Gxbvk1UnHq5YA8ha4J+VE2JXkmhG4NQyWgdCYqnMgnfnEvFbkNqHybm8BP/c1bOwq5Dxe1BnlHRk7EPGkPYTWYqprvMM70QCE/ToVMKi5OLHJJyXgVLCzmTeD1dz+bQpV6rh0gXkgfUJCCR0UbdaUcJyeb3pwJGW2FD+yVEeNoz65eHYJTIso2nM6aM1aPPsqbtxUAg==; S=d1t17Pz8/Pz8/PzpiP21KPw8/P/THJHwd735J2/AIVSrLMIr1FHbqEUi3fcdWV9B3YdFndIcDD5OewI4V/iwUrEArag==; s_sq=flipkart-prd%3D%2526pid%253Dwww.flipkart.com%25253A%2526pidt%253D1%2526oid%253Dhttps%25253A%25252F%25252Fwww.flipkart.com%25252Fgyrfalcon-solid-men-multicolor-regular-shorts%25252Fp%25252Fitm6286e2fccabd2%25253Fpid%25253DSRTFTF%2526ot%253DA; SN=VI67A54AEFB9EA4D449CD35DC8C7A1990D.TOKA717D9A0419242F18F6C41BB697B504F.1648188556.LO
----
 POSTDATA [{"nc":{"ssid":"ez4yhjtfhs0000001648188558595","iid":"couonunlu80000001648188558759","fm":"organic","pn":"None","pt":"None"},"e":[{"en":"ITI","fid":"vc4ne8z4740000001648188558764","iid":"blobio-imr-202106_9dc9c5e800c941849bce41f6c3088db0.jpg","pid":"SRTFTFCBRKGYTQEF","pos":1,"t":1648188558764},{"en":"ITI","fid":"n09mbyzi680000001648188558764","iid":"blobio-imr-202104_03cf9fdb9c75425c9c44a51a2390db74.jpg","pid":"SRTFTFCBRKGYTQEF","pos":2,"t":1648188558764},{"en":"ITI","fid":"gbtafipyqo0000001648188558764","iid":"blobio-imr-202104_7414adb5e32f4606bcc542bd39952239.jpg","pid":"SRTFTFCBRKGYTQEF","pos":3,"t":1648188558764},{"en":"ITI","fid":"knbm6u9rkw0000001648188558764","iid":"blobio-imr-202107_7a476eef813241f5ad07f42fefc78acc.jpg","pid":"SRTFTFCBRKGYTQEF","pos":4,"t":1648188558764},{"en":"ITI","fid":"oxqlx3bo5c0000001648188558764","iid":"blobio-imr-202106_5c0156da14df4ce8b94f05974bb5b46c.jpg","pid":"SRTFTFCBRKGYTQEF","pos":5,"t":1648188558764},{"en":"ITCI","fid":"mwh6gnswuo0000001648188558764","pid":"SRTFTFCBRKGYTQEF","is":4,"tic":102,"t":1648188558764},{"en":"ITI","fid":"gpu7lrnu0w0000001648188558764","iid":"blobio-imr-202106_9dc9c5e800c941849bce41f6c3088db0.jpg","pid":"SRTFTFCBRKGYTQEF","pos":1,"rid":"c36a656b-f655-4804-8d41-b96ecfc79164","t":1648188558764},{"en":"ITCI","fid":"hbuc0wntzk0000001648188558764","pid":"SRTFTFCBRKGYTQEF","is":1,"rid":"c36a656b-f655-4804-8d41-b96ecfc79164","tic":1,"t":1648188558764},{"en":"RI","fid":"8fb06y00pc0000001648188558764","rid":"c36a656b-f655-4804-8d41-b96ecfc79164","tp":"product","t":1648188558764},{"en":"ITI","fid":"qnah37sda80000001648188558764","iid":"blobio-imr-202104_03cf9fdb9c75425c9c44a51a2390db74.jpg","pid":"SRTFTFCBRKGYTQEF","pos":1,"rid":"ea0d4af1-5f0f-4ac4-9b5a-1e7e6f4fd4dd","t":1648188558764},{"en":"ITI","fid":"gqum96vp000000001648188558764","iid":"blobio-imr-202104_7414adb5e32f4606bcc542bd39952239.jpg","pid":"SRTFTFCBRKGYTQEF","pos":2,"rid":"ea0d4af1-5f0f-4ac4-9b5a-1e7e6f4fd4dd","t":1648188558764},{"en":"ITCI","fid":"kvhq5g2rao0000001648188558764","pid":"SRTFTFCBRKGYTQEF","is":2,"rid":"ea0d4af1-5f0f-4ac4-9b5a-1e7e6f4fd4dd","tic":2,"t":1648188558764},{"en":"RI","fid":"2f6ntvyki80000001648188558764","rid":"ea0d4af1-5f0f-4ac4-9b5a-1e7e6f4fd4dd","tp":"product","t":1648188558764},{"en":"ITI","fid":"cmg6njshow0000001648188558764","iid":"blobio-imr-202107_7a476eef813241f5ad07f42fefc78acc.jpg","pid":"SRTFTFCBRKGYTQEF","pos":1,"rid":"c0bc175a-984b-48eb-826c-6f608e86fd67","t":1648188558764},{"en":"ITCI","fid":"xr1j08idj40000001648188558764","pid":"SRTFTFCBRKGYTQEF","is":1,"rid":"c0bc175a-984b-48eb-826c-6f608e86fd67","tic":1,"t":1648188558764},{"en":"RI","fid":"e5ua0cim2o0000001648188558764","rid":"c0bc175a-984b-48eb-826c-6f608e86fd67","tp":"product","t":1648188558764}]}]
--Response 
HTTP/1.1 200 OK
Server: nginx
Date: Fri, 25 Mar 2022 06:09:18 GMT
Content-Type: application/json
Content-Length: 0
Access-Control-Allow-Origin: https://www.flipkart.com
Access-Control-Allow-Credentials: true
x-e-id: 10.34.161.162
----
--Request 
GET https://www.google.com/pagead/1p-user-list/1017598645/?value=0&label=5BlXCLOpwQMQtaWd5QM&guid=ON&script=0&data=pagetype%3Dviewitem%3Bprodid%3DSRTFTFCBRKGYTQEF%3Bpcat%3Dclothing-and-accessories%2Cbottomwear%2Cshorts%2Cmen-s-shorts%2Cgyrfalcon-men-s-shorts%3Bbrand%3DGYRFALCON%3Bvalue%3D403%3Bpname%3DGYRFALCON%20Solid%20Men%20Multicolor%20Regular%20Shorts&is_vtc=1&random=569846369
Host: www.google.com
sec-ch-ua: \" Not A;Brand\";v=\"99\", \"Chromium\";v=\"90\"
sec-ch-ua-mobile: ?0
User-Agent: Mozilla/5.0 (Windows NT 10.0; Win64; x64) AppleWebKit/537.36 (KHTML, like Gecko) Chrome/90.0.4430.93 Safari/537.36
Accept: image/avif,image/webp,image/apng,image/svg+xml,image/*,*/*;q=0.8
Sec-Fetch-Site: cross-site
Sec-Fetch-Mode: no-cors
Sec-Fetch-Dest: image
Referer: https://www.flipkart.com/
Accept-Encoding: gzip, deflate, br
Accept-Language: en-US,en;q=0.9
----
--Response 
HTTP/1.1 302
p3p: policyref=\"https://www.googleadservices.com/pagead/p3p.xml\", CP=\"NOI DEV PSA PSD IVA IVD OTP OUR OTR IND OTC\"
timing-allow-origin: *
cross-origin-resource-policy: cross-origin
date: Fri, 25 Mar 2022 06:09:19 GMT
pragma: no-cache
expires: Fri, 01 Jan 1990 00:00:00 GMT
cache-control: no-cache, no-store, must-revalidate
location: https://www.google.co.in/pagead/1p-user-list/1017598645/?value=0&label=5BlXCLOpwQMQtaWd5QM&guid=ON&script=0&data=pagetype%3Dviewitem%3Bprodid%3DSRTFTFCBRKGYTQEF%3Bpcat%3Dclothing-and-accessories%2Cbottomwear%2Cshorts%2Cmen-s-shorts%2Cgyrfalcon-men-s-shorts%3Bbrand%3DGYRFALCON%3Bvalue%3D403%3Bpname%3DGYRFALCON%20Solid%20Men%20Multicolor%20Regular%20Shorts&is_vtc=1&random=569846369&ipr=y
content-type: image/gif
content-security-policy: script-src 'none'; object-src 'none'
x-content-type-options: nosniff
server: cafe
content-length: 42
x-xss-protection: 0
alt-svc: h3=\":443\"; ma=2592000,h3-29=\":443\"; ma=2592000,h3-Q050=\":443\"; ma=2592000,h3-Q046=\":443\"; ma=2592000,h3-Q043=\":443\"; ma=2592000,quic=\":443\"; ma=2592000; v=\"46,43\"
----
--Request 
GET https://www.google.com/pagead/1p-user-list/1008984980/?value=0&label=eJWICIydxgMQlMeP4QM&guid=ON&script=0&data=pagetype%3Dviewitem%3Bprodid%3DSRTFTFCBRKGYTQEF%3Bpcat%3Dclothing-and-accessories%2Cbottomwear%2Cshorts%2Cmen-s-shorts%2Cgyrfalcon-men-s-shorts%3Bbrand%3DGYRFALCON%3Bvalue%3D403%3Bpname%3DGYRFALCON%20Solid%20Men%20Multicolor%20Regular%20Shorts&is_vtc=1&random=50574018
Host: www.google.com
sec-ch-ua: \" Not A;Brand\";v=\"99\", \"Chromium\";v=\"90\"
sec-ch-ua-mobile: ?0
User-Agent: Mozilla/5.0 (Windows NT 10.0; Win64; x64) AppleWebKit/537.36 (KHTML, like Gecko) Chrome/90.0.4430.93 Safari/537.36
Accept: image/avif,image/webp,image/apng,image/svg+xml,image/*,*/*;q=0.8
Sec-Fetch-Site: cross-site
Sec-Fetch-Mode: no-cors
Sec-Fetch-Dest: image
Referer: https://www.flipkart.com/
Accept-Encoding: gzip, deflate, br
Accept-Language: en-US,en;q=0.9
----
--Response 
HTTP/1.1 302
p3p: policyref=\"https://www.googleadservices.com/pagead/p3p.xml\", CP=\"NOI DEV PSA PSD IVA IVD OTP OUR OTR IND OTC\"
timing-allow-origin: *
cross-origin-resource-policy: cross-origin
date: Fri, 25 Mar 2022 06:09:19 GMT
pragma: no-cache
expires: Fri, 01 Jan 1990 00:00:00 GMT
cache-control: no-cache, no-store, must-revalidate
location: https://www.google.co.in/pagead/1p-user-list/1008984980/?value=0&label=eJWICIydxgMQlMeP4QM&guid=ON&script=0&data=pagetype%3Dviewitem%3Bprodid%3DSRTFTFCBRKGYTQEF%3Bpcat%3Dclothing-and-accessories%2Cbottomwear%2Cshorts%2Cmen-s-shorts%2Cgyrfalcon-men-s-shorts%3Bbrand%3DGYRFALCON%3Bvalue%3D403%3Bpname%3DGYRFALCON%20Solid%20Men%20Multicolor%20Regular%20Shorts&is_vtc=1&random=50574018&ipr=y
content-type: image/gif
content-security-policy: script-src 'none'; object-src 'none'
x-content-type-options: nosniff
server: cafe
content-length: 42
x-xss-protection: 0
alt-svc: h3=\":443\"; ma=2592000,h3-29=\":443\"; ma=2592000,h3-Q050=\":443\"; ma=2592000,h3-Q046=\":443\"; ma=2592000,h3-Q043=\":443\"; ma=2592000,quic=\":443\"; ma=2592000; v=\"46,43\"
----
--Request 
GET https://www.google.com/pagead/1p-user-list/1011966879/?guid=ON&script=0&data=ecomm_pagetype%3Dproduct%3Becomm_prodid%3DSRTFTFCBRKGYTQEF%3Bpcat%3Dclothing-and-accessories%2Cbottomwear%2Cshorts%2Cmen-s-shorts%2Cgyrfalcon-men-s-shorts%3Bbrand%3DGYRFALCON%3Becomm_totalvalue%3D403%3Bpname%3DGYRFALCON%20Solid%20Men%20Multicolor%20Regular%20Shorts&is_vtc=1&random=2370989694
Host: www.google.com
sec-ch-ua: \" Not A;Brand\";v=\"99\", \"Chromium\";v=\"90\"
sec-ch-ua-mobile: ?0
User-Agent: Mozilla/5.0 (Windows NT 10.0; Win64; x64) AppleWebKit/537.36 (KHTML, like Gecko) Chrome/90.0.4430.93 Safari/537.36
Accept: image/avif,image/webp,image/apng,image/svg+xml,image/*,*/*;q=0.8
Sec-Fetch-Site: cross-site
Sec-Fetch-Mode: no-cors
Sec-Fetch-Dest: image
Referer: https://www.flipkart.com/
Accept-Encoding: gzip, deflate, br
Accept-Language: en-US,en;q=0.9
----
--Response 
HTTP/1.1 302
p3p: policyref=\"https://www.googleadservices.com/pagead/p3p.xml\", CP=\"NOI DEV PSA PSD IVA IVD OTP OUR OTR IND OTC\"
timing-allow-origin: *
cross-origin-resource-policy: cross-origin
date: Fri, 25 Mar 2022 06:09:19 GMT
pragma: no-cache
expires: Fri, 01 Jan 1990 00:00:00 GMT
cache-control: no-cache, no-store, must-revalidate
location: https://www.google.co.in/pagead/1p-user-list/1011966879/?guid=ON&script=0&data=ecomm_pagetype%3Dproduct%3Becomm_prodid%3DSRTFTFCBRKGYTQEF%3Bpcat%3Dclothing-and-accessories%2Cbottomwear%2Cshorts%2Cmen-s-shorts%2Cgyrfalcon-men-s-shorts%3Bbrand%3DGYRFALCON%3Becomm_totalvalue%3D403%3Bpname%3DGYRFALCON%20Solid%20Men%20Multicolor%20Regular%20Shorts&is_vtc=1&random=2370989694&ipr=y
content-type: image/gif
content-security-policy: script-src 'none'; object-src 'none'
x-content-type-options: nosniff
server: cafe
content-length: 42
x-xss-protection: 0
alt-svc: h3=\":443\"; ma=2592000,h3-29=\":443\"; ma=2592000,h3-Q050=\":443\"; ma=2592000,h3-Q046=\":443\"; ma=2592000,h3-Q043=\":443\"; ma=2592000,quic=\":443\"; ma=2592000; v=\"46,43\"
----

