--Request 
POST https://rome.api.flipkart.com/api/1/fdp
Host: rome.api.flipkart.com
sec-ch-ua: \" Not A;Brand\";v=\"99\", \"Chromium\";v=\"90\"
X-User-Agent: Mozilla/5.0 (Windows NT 10.0; Win64; x64) AppleWebKit/537.36 (KHTML, like Gecko) Chrome/90.0.4430.93 Safari/537.36 FKUA/website/42/website/Desktop
sec-ch-ua-mobile: ?0
User-Agent: Mozilla/5.0 (Windows NT 10.0; Win64; x64) AppleWebKit/537.36 (KHTML, like Gecko) Chrome/90.0.4430.93 Safari/537.36
Content-Type: application/json
Accept: */*
Origin: https://www.flipkart.com
Sec-Fetch-Site: same-site
Sec-Fetch-Mode: cors
Sec-Fetch-Dest: empty
Referer: https://www.flipkart.com/
Accept-Encoding: gzip, deflate, br
Accept-Language: en-US,en;q=0.9
Cookie: T=TI164818842216200180224434770721730017262782886130882680036219971948; SN=VI67A54AEFB9EA4D449CD35DC8C7A1990D.TOKA717D9A0419242F18F6C41BB697B504F.1648188422.LO; Network-Type=4g; pxcts=ccf641b1-ac01-11ec-a8de-68696d704d4a; _pxvid=ccf62de1-ac01-11ec-a8de-68696d704d4a; AMCVS_17EB401053DAF4840A490D4C%40AdobeOrg=1; AMCV_17EB401053DAF4840A490D4C%40AdobeOrg=-227196251%7CMCIDTS%7C19077%7CMCMID%7C84290952911474648655406836606388072339%7CMCAAMLH-1648793228%7C12%7CMCAAMB-1648793228%7C6G1ynYcLPuiQxYZrsz_pkqfLG9yMXBpb2zX5dvJdYQJzPXImdj0y%7CMCOPTOUT-1648195628s%7CNONE
----
 POSTDATA [{"nc":{"ssid":"yelcau6xvk0000001648188428456","mpid":"FLIPKART","pn":"homepage","pt":"hp","ss":"BasePageContext","iid":"7vva2zwk7k0000001648188428753","fm":"organic"},"e":[{"en":"PV","ib":false,"id":false,"cat":null,"t":1648188428753}]}]
--Response 
HTTP/1.1 200 OK
Server: nginx
Date: Fri, 25 Mar 2022 06:07:08 GMT
Content-Type: application/json
Content-Length: 0
Access-Control-Allow-Origin: https://www.flipkart.com
Access-Control-Allow-Credentials: true
x-e-id: 10.34.153.239
----
--Request 
GET https://rukminim1.flixcart.com/image/150/150/ksru0sw0/top/h/y/d/m-40720-urbanic-original-imag69upgg6ykgtc.jpeg?q=70
Host: rukminim1.flixcart.com
sec-ch-ua: \" Not A;Brand\";v=\"99\", \"Chromium\";v=\"90\"
sec-ch-ua-mobile: ?0
User-Agent: Mozilla/5.0 (Windows NT 10.0; Win64; x64) AppleWebKit/537.36 (KHTML, like Gecko) Chrome/90.0.4430.93 Safari/537.36
Accept: image/avif,image/webp,image/apng,image/svg+xml,image/*,*/*;q=0.8
Sec-Fetch-Site: cross-site
Sec-Fetch-Mode: no-cors
Sec-Fetch-Dest: image
Referer: https://www.flipkart.com/
Accept-Encoding: gzip, deflate, br
Accept-Language: en-US,en;q=0.9
----
--Response 
HTTP/1.1 200 OK
Content-Type: image/webp
ETag: da01eb7f651afdfdad1fb9ee48ff614d
Content-Encoding: gzip
Content-Length: 2251
Cache-Control: max-age=2592000
Date: Fri, 25 Mar 2022 06:07:04 GMT
Vary: Accept-Encoding
Access-Control-Allow-Origin: *
Vary: Accept
----
--Request 
GET https://rukminim1.flixcart.com/image/150/150/kz8qsnk0/collapsible-wardrobe/v/q/q/pc-plastic-pvc-pp-collapsible-wardrobe-12-door-white-metal-and-original-imagbazgnxdtfbwz.jpeg?q=70
Host: rukminim1.flixcart.com
sec-ch-ua: \" Not A;Brand\";v=\"99\", \"Chromium\";v=\"90\"
sec-ch-ua-mobile: ?0
User-Agent: Mozilla/5.0 (Windows NT 10.0; Win64; x64) AppleWebKit/537.36 (KHTML, like Gecko) Chrome/90.0.4430.93 Safari/537.36
Accept: image/avif,image/webp,image/apng,image/svg+xml,image/*,*/*;q=0.8
Sec-Fetch-Site: cross-site
Sec-Fetch-Mode: no-cors
Sec-Fetch-Dest: image
Referer: https://www.flipkart.com/
Accept-Encoding: gzip, deflate, br
Accept-Language: en-US,en;q=0.9
----
--Response 
HTTP/1.1 200 OK
Content-Type: image/webp
ETag: 40bc044757462c00fef484070b085d57
Content-Encoding: gzip
Content-Length: 2587
Cache-Control: max-age=2592000
Date: Fri, 25 Mar 2022 06:07:04 GMT
Vary: Accept-Encoding
Access-Control-Allow-Origin: *
Vary: Accept
----
--Request 
GET https://rukminim1.flixcart.com/image/150/150/ke8uv0w0-0/sunglass/p/r/y/135555-s-vincent-chase-original-imafuywa5zyqnzz4.jpeg?q=70
Host: rukminim1.flixcart.com
sec-ch-ua: \" Not A;Brand\";v=\"99\", \"Chromium\";v=\"90\"
sec-ch-ua-mobile: ?0
User-Agent: Mozilla/5.0 (Windows NT 10.0; Win64; x64) AppleWebKit/537.36 (KHTML, like Gecko) Chrome/90.0.4430.93 Safari/537.36
Accept: image/avif,image/webp,image/apng,image/svg+xml,image/*,*/*;q=0.8
Sec-Fetch-Site: cross-site
Sec-Fetch-Mode: no-cors
Sec-Fetch-Dest: image
Referer: https://www.flipkart.com/
Accept-Encoding: gzip, deflate, br
Accept-Language: en-US,en;q=0.9
----
--Response 
HTTP/1.1 200 OK
Content-Type: image/webp
ETag: 6c79dea75081b243702dbac107dfed61
Content-Encoding: gzip
Content-Length: 1017
Cache-Control: max-age=2592000
Date: Fri, 25 Mar 2022 06:07:04 GMT
Vary: Accept-Encoding
Access-Control-Allow-Origin: *
Vary: Accept
----
--Request 
GET https://rukminim1.flixcart.com/image/150/150/kyxb9u80/gas-stove/y/x/c/4-3-5-hf4bstlb-hindflame-95-original-imagb2f4crargjym.jpeg?q=70
Host: rukminim1.flixcart.com
sec-ch-ua: \" Not A;Brand\";v=\"99\", \"Chromium\";v=\"90\"
sec-ch-ua-mobile: ?0
User-Agent: Mozilla/5.0 (Windows NT 10.0; Win64; x64) AppleWebKit/537.36 (KHTML, like Gecko) Chrome/90.0.4430.93 Safari/537.36
Accept: image/avif,image/webp,image/apng,image/svg+xml,image/*,*/*;q=0.8
Sec-Fetch-Site: cross-site
Sec-Fetch-Mode: no-cors
Sec-Fetch-Dest: image
Referer: https://www.flipkart.com/
Accept-Encoding: gzip, deflate, br
Accept-Language: en-US,en;q=0.9
----
--Response 
HTTP/1.1 200 OK
Content-Type: image/webp
ETag: 65d077f0ad779e43282860fa89bb11fd
Content-Encoding: gzip
Content-Length: 1529
Cache-Control: max-age=2592000
Date: Fri, 25 Mar 2022 06:07:04 GMT
Vary: Accept-Encoding
Access-Control-Allow-Origin: *
Vary: Accept
----
--Request 
GET https://static-assets-web.flixcart.com/www/linchpin/fk-cp-zion/img/payment-method_69e7ec.svg
Host: static-assets-web.flixcart.com
sec-ch-ua: \" Not A;Brand\";v=\"99\", \"Chromium\";v=\"90\"
sec-ch-ua-mobile: ?0
User-Agent: Mozilla/5.0 (Windows NT 10.0; Win64; x64) AppleWebKit/537.36 (KHTML, like Gecko) Chrome/90.0.4430.93 Safari/537.36
Accept: image/avif,image/webp,image/apng,image/svg+xml,image/*,*/*;q=0.8
Sec-Fetch-Site: cross-site
Sec-Fetch-Mode: no-cors
Sec-Fetch-Dest: image
Referer: https://www.flipkart.com/
Accept-Encoding: gzip, deflate, br
Accept-Language: en-US,en;q=0.9
----
--Response 
HTTP/1.1 200
content-type: image/svg+xml
etag: W/\"c454fbcb29be533fa70c85971c22cc96\"
access-control-allow-origin: *
access-control-allow-credentials: true
access-control-allow-headers: viewport-width, dpr
x-origin-cache-status: MISS
content-encoding: gzip
content-length: 16540
cache-control: max-age=299569164
expires: Sun, 21 Sep 2031 11:46:28 GMT
date: Fri, 25 Mar 2022 06:07:04 GMT
vary: Accept-Encoding
----
--Request 
GET https://rukminim1.flixcart.com/image/150/150/krkyt8w0/shoe/6/b/r/11-hmi55-11-adidas-vicblu-ftwwht-solred-conavy-original-imag5cd4ayngenun.jpeg?q=70
Host: rukminim1.flixcart.com
sec-ch-ua: \" Not A;Brand\";v=\"99\", \"Chromium\";v=\"90\"
sec-ch-ua-mobile: ?0
User-Agent: Mozilla/5.0 (Windows NT 10.0; Win64; x64) AppleWebKit/537.36 (KHTML, like Gecko) Chrome/90.0.4430.93 Safari/537.36
Accept: image/avif,image/webp,image/apng,image/svg+xml,image/*,*/*;q=0.8
Sec-Fetch-Site: cross-site
Sec-Fetch-Mode: no-cors
Sec-Fetch-Dest: image
Referer: https://www.flipkart.com/
Accept-Encoding: gzip, deflate, br
Accept-Language: en-US,en;q=0.9
----
--Response 
HTTP/1.1 200 OK
Content-Type: image/webp
ETag: 70c140be15d783c022a2e51f8de08e29
Content-Encoding: gzip
Content-Length: 2211
Cache-Control: max-age=2592000
Date: Fri, 25 Mar 2022 06:07:04 GMT
Vary: Accept-Encoding
Access-Control-Allow-Origin: *
Vary: Accept
----
--Request 
GET https://rukminim1.flixcart.com/flap/150/150/image/e3ff066cfd6881cb.jpg?q=70
Host: rukminim1.flixcart.com
sec-ch-ua: \" Not A;Brand\";v=\"99\", \"Chromium\";v=\"90\"
sec-ch-ua-mobile: ?0
User-Agent: Mozilla/5.0 (Windows NT 10.0; Win64; x64) AppleWebKit/537.36 (KHTML, like Gecko) Chrome/90.0.4430.93 Safari/537.36
Accept: image/avif,image/webp,image/apng,image/svg+xml,image/*,*/*;q=0.8
Sec-Fetch-Site: cross-site
Sec-Fetch-Mode: no-cors
Sec-Fetch-Dest: image
Referer: https://www.flipkart.com/
Accept-Encoding: gzip, deflate, br
Accept-Language: en-US,en;q=0.9
----
--Response 
HTTP/1.1 200 OK
Content-Type: image/webp
ETag: 4d5903b2dde9a18d217e40784e30f4be
Content-Encoding: gzip
Content-Length: 2191
Cache-Control: max-age=2592000
Date: Fri, 25 Mar 2022 06:07:04 GMT
Vary: Accept-Encoding
Access-Control-Allow-Origin: *
Vary: Accept
----
--Request 
GET https://rukminim1.flixcart.com/flap/464/708/image/36f00a7331b4abcf.jpg?q=70
Host: rukminim1.flixcart.com
sec-ch-ua: \" Not A;Brand\";v=\"99\", \"Chromium\";v=\"90\"
sec-ch-ua-mobile: ?0
User-Agent: Mozilla/5.0 (Windows NT 10.0; Win64; x64) AppleWebKit/537.36 (KHTML, like Gecko) Chrome/90.0.4430.93 Safari/537.36
Accept: image/avif,image/webp,image/apng,image/svg+xml,image/*,*/*;q=0.8
Sec-Fetch-Site: cross-site
Sec-Fetch-Mode: no-cors
Sec-Fetch-Dest: image
Referer: https://www.flipkart.com/
Accept-Encoding: gzip, deflate, br
Accept-Language: en-US,en;q=0.9
----
--Response 
HTTP/1.1 200 OK
Content-Type: image/webp
ETag: 782809d9fdba9c770dc9035aa030dcd1
Content-Encoding: gzip
Content-Length: 22084
Cache-Control: max-age=2592000
Date: Fri, 25 Mar 2022 06:07:04 GMT
Vary: Accept-Encoding
Access-Control-Allow-Origin: *
Vary: Accept
----
--Request 
GET https://desa.fkapi.net/1.gif
Host: desa.fkapi.net
sec-ch-ua: \" Not A;Brand\";v=\"99\", \"Chromium\";v=\"90\"
sec-ch-ua-mobile: ?0
User-Agent: Mozilla/5.0 (Windows NT 10.0; Win64; x64) AppleWebKit/537.36 (KHTML, like Gecko) Chrome/90.0.4430.93 Safari/537.36
Accept: image/avif,image/webp,image/apng,image/svg+xml,image/*,*/*;q=0.8
Sec-Fetch-Site: cross-site
Sec-Fetch-Mode: no-cors
Sec-Fetch-Dest: image
Referer: https://www.flipkart.com/
Accept-Encoding: gzip, deflate, br
Accept-Language: en-US,en;q=0.9
----
--Response 
HTTP/1.1 200 OK
Server: nginx/1.10.3
Date: Fri, 25 Mar 2022 06:07:09 GMT
Content-Type: image/gif
Content-Length: 26
Last-Modified: Mon, 18 May 2020 05:57:43 GMT
Connection: keep-alive
ETag: \"5ec223d7-1a\"
SE: 11
Timing-Allow-Origin: *
Accept-Ranges: bytes
----
--Request 
GET https://desb.fkapi.net/1.gif
Host: desb.fkapi.net
sec-ch-ua: \" Not A;Brand\";v=\"99\", \"Chromium\";v=\"90\"
sec-ch-ua-mobile: ?0
User-Agent: Mozilla/5.0 (Windows NT 10.0; Win64; x64) AppleWebKit/537.36 (KHTML, like Gecko) Chrome/90.0.4430.93 Safari/537.36
Accept: image/avif,image/webp,image/apng,image/svg+xml,image/*,*/*;q=0.8
Sec-Fetch-Site: cross-site
Sec-Fetch-Mode: no-cors
Sec-Fetch-Dest: image
Referer: https://www.flipkart.com/
Accept-Encoding: gzip, deflate, br
Accept-Language: en-US,en;q=0.9
----
--Response 
HTTP/1.1 200 OK
Server: nginx/1.10.3
Date: Fri, 25 Mar 2022 06:07:09 GMT
Content-Type: image/gif
Content-Length: 26
Last-Modified: Mon, 18 May 2020 05:57:43 GMT
Connection: keep-alive
ETag: \"5ec223d7-1a\"
SE: 200
Timing-Allow-Origin: *
Accept-Ranges: bytes
----

