--Request 
POST https://2.rome.api.flipkart.com/api/1/fdp
Host: 2.rome.api.flipkart.com
sec-ch-ua: \" Not A;Brand\";v=\"99\", \"Chromium\";v=\"90\"
X-User-Agent: Mozilla/5.0 (Windows NT 10.0; Win64; x64) AppleWebKit/537.36 (KHTML, like Gecko) Chrome/90.0.4430.93 Safari/537.36 FKUA/website/42/website/Desktop
sec-ch-ua-mobile: ?0
User-Agent: Mozilla/5.0 (Windows NT 10.0; Win64; x64) AppleWebKit/537.36 (KHTML, like Gecko) Chrome/90.0.4430.93 Safari/537.36
Content-Type: application/json
Accept: */*
Origin: https://www.flipkart.com
Sec-Fetch-Site: same-site
Sec-Fetch-Mode: cors
Sec-Fetch-Dest: empty
Referer: https://www.flipkart.com/
Accept-Encoding: gzip, deflate, br
Accept-Language: en-US,en;q=0.9
Cookie: T=TI164818842216200180224434770721730017262782886130882680036219971948; Network-Type=4g; pxcts=ccf641b1-ac01-11ec-a8de-68696d704d4a; _pxvid=ccf62de1-ac01-11ec-a8de-68696d704d4a; AMCVS_17EB401053DAF4840A490D4C%40AdobeOrg=1; AMCV_17EB401053DAF4840A490D4C%40AdobeOrg=-227196251%7CMCIDTS%7C19077%7CMCMID%7C84290952911474648655406836606388072339%7CMCAAMLH-1648793228%7C12%7CMCAAMB-1648793228%7C6G1ynYcLPuiQxYZrsz_pkqfLG9yMXBpb2zX5dvJdYQJzPXImdj0y%7CMCOPTOUT-1648195629s%7CNONE%7CMCAID%7CNONE; s_sq=flipkart-prd%3D%2526pid%253Dwww.flipkart.com%25253A%2526pidt%253D1%2526oid%253DfunctionEr%252528%252529%25257B%25257D%2526oidt%253D2%2526ot%253DSUBMIT; SN=VI67A54AEFB9EA4D449CD35DC8C7A1990D.TOK4AA1E8AEC9A74269BBEF1F63E28FC891.1648188606.LI; _px3=379ecd57cd5994c60e897d74c836b3100d90c2fd179676c866cbe15f210dea61:Jt20o+RwDJ4osNq6aFaMGHhugWHafK2P8oF3FPc0W+eHN/BtVMfzsxPrAKpZoHiWON9zitjLgecDuMPXqzPLYQ==:1000:0Lr3jiMcgGpb1N49zq+JbnlEmpZhqVRTgFe1q/ECoD3aKV5WZFPz0AJb7V71+TfWKx06Cl42mWXV7FHztFGPERj4yToQUNsvC0snT1bW6rctbpBgMdQZR5B8k13QPA6Wep3yctth1VZgKmJW9TXEA0SilgzSxxCj2VgqWB6cOAnoWY1XmGviULXY5qWXURumsOHrpeY0PtVT0nR1K5WJuQ==; S=d1t17Pz8PQz8/Pz8/Pz9uPxdNWRs+yphBRxkwCLhRJoyTQIZPV5y8eAvGHyATc7pBivSOLXxrPEH/kudHfgBywJ9URg==
----
 POSTDATA [{"nc":{"ssid":"9c1lkfudog0000001648188608609","mpid":"FLIPKART","pn":"browse","pt":"browse","ss":"BrowsePageContext","iid":"9ae6739fxc0000001648188608994","fm":"organic"},"e":[{"en":"EECE","lu":"https://www.flipkart.com/clothing-and-accessories/bottomwear/pr?sid=clo,vua&p[]=facets.ideal_for%255B%255D%3DMen&p[]=facets.ideal_for%255B%255D%3Dmen&otracker=categorytree&fm=neo%2Fmerchandising&iid=M_8b5cc100-01c3-4402-b6ed-07191d3bc4db_2_372UD5BXDFYS_MC.8HARX8UX7IX5&otracker=hp_rich_navigation_2_2.navigationCard.RICH_NAVIGATION_Fashion~Men%2527s%2BBottom%2BWear_8HARX8UX7IX5&otracker1=hp_rich_navigation_PINNED_neo%2Fmerchandising_NA_NAV_EXPANDABLE_navigationCard_cc_2_L1_view-all&cid=8HARX8UX7IX5","lpn":"Store","ru":"https://www.flipkart.com/clothing-and-accessories/bottomwear/pr?sid=clo,vua&p[]=facets.ideal_for%255B%255D%3DMen&p[]=facets.ideal_for%255B%255D%3Dmen&otracker=categorytree&fm=neo%2Fmerchandising&iid=M_8b5cc100-01c3-4402-b6ed-07191d3bc4db_2_372UD5BXDFYS_MC.8HARX8UX7IX5&otracker=hp_rich_navigation_2_2.navigationCard.RICH_NAVIGATION_Fashion~Men%2527s%2BBottom%2BWear_8HARX8UX7IX5&otracker1=hp_rich_navigation_PINNED_neo%2Fmerchandising_NA_NAV_EXPANDABLE_navigationCard_cc_2_L1_view-all&cid=8HARX8UX7IX5","t":1648188609005},{"en":"AppEvents","ev":[{"name":"FCP","value":1620.3950000926852}],"mt":{"appVersion":"4.84.0","platform":"desktop","source":"network","pageName":"Browse","pageUri":"/clothing-and-accessories/bottomwear/pr"},"t":1648188609696},{"en":"AppEvents","ev":[{"name":"TTFB","value":1187.7500000409782}],"mt":{"appVersion":"4.84.0","platform":"desktop","source":"network","pageName":"Browse","pageUri":"/clothing-and-accessories/bottomwear/pr"},"t":1648188610519},{"en":"AppEvents","ev":[{"name":"LCP","value":2779.94}],"mt":{"appVersion":"4.84.0","platform":"desktop","source":"network","pageName":"Browse","pageUri":"/clothing-and-accessories/bottomwear/pr"},"t":1648188612100},{"en":"DCC","iid":"bcdc8e78-74d9-4648-84fb-07767b41231c.JEAFGBPWMNBDDXGU.SEARCH","ct":"productCard","p":"13","t":1648188613536}]}]
--Response 
HTTP/1.1 200 OK
Server: nginx
Date: Fri, 25 Mar 2022 06:10:13 GMT
Content-Type: application/json
Content-Length: 0
Access-Control-Allow-Origin: https://www.flipkart.com
Access-Control-Allow-Credentials: true
x-e-id: 10.51.2.71
----
--Request 
GET https://static-assets-web.flixcart.com/www/linchpin/fk-cp-zion/css/app_modules.chunk.94b5e7.css
Host: static-assets-web.flixcart.com
sec-ch-ua: \" Not A;Brand\";v=\"99\", \"Chromium\";v=\"90\"
sec-ch-ua-mobile: ?0
User-Agent: Mozilla/5.0 (Windows NT 10.0; Win64; x64) AppleWebKit/537.36 (KHTML, like Gecko) Chrome/90.0.4430.93 Safari/537.36
Accept: text/css,*/*;q=0.1
Sec-Fetch-Site: cross-site
Sec-Fetch-Mode: no-cors
Sec-Fetch-Dest: style
Referer: https://www.flipkart.com/
Accept-Encoding: gzip, deflate, br
Accept-Language: en-US,en;q=0.9
----
--Response 
HTTP/1.1 200
content-type: text/css
etag: W/\"50617e906576620b5a53e14698180389\"
access-control-allow-origin: *
access-control-allow-credentials: true
access-control-allow-headers: viewport-width, dpr
x-origin-cache-status: MISS
content-encoding: br
content-length: 44
cache-control: max-age=306128319
expires: Sat, 06 Dec 2031 09:45:42 GMT
date: Fri, 25 Mar 2022 06:07:03 GMT
----
--Request 
GET https://static-assets-web.flixcart.com/www/linchpin/fk-cp-zion/css/app.chunk.9adf7d.css
Host: static-assets-web.flixcart.com
sec-ch-ua: \" Not A;Brand\";v=\"99\", \"Chromium\";v=\"90\"
sec-ch-ua-mobile: ?0
User-Agent: Mozilla/5.0 (Windows NT 10.0; Win64; x64) AppleWebKit/537.36 (KHTML, like Gecko) Chrome/90.0.4430.93 Safari/537.36
Accept: text/css,*/*;q=0.1
Sec-Fetch-Site: cross-site
Sec-Fetch-Mode: no-cors
Sec-Fetch-Dest: style
Referer: https://www.flipkart.com/
Accept-Encoding: gzip, deflate, br
Accept-Language: en-US,en;q=0.9
----
--Response 
HTTP/1.1 200
content-type: text/css
etag: W/\"23414565511d3b68d1a30e982c6c3200\"
access-control-allow-origin: *
access-control-allow-credentials: true
access-control-allow-headers: viewport-width, dpr
x-origin-cache-status: HIT
content-encoding: br
content-length: 25165
cache-control: max-age=314511781
expires: Fri, 12 Mar 2032 10:30:04 GMT
date: Fri, 25 Mar 2022 06:07:03 GMT
----
--Request 
GET https://static-assets-web.flixcart.com/www/linchpin/fk-cp-zion/css/Product.chunk.097bc0.css
Host: static-assets-web.flixcart.com
sec-ch-ua: \" Not A;Brand\";v=\"99\", \"Chromium\";v=\"90\"
sec-ch-ua-mobile: ?0
User-Agent: Mozilla/5.0 (Windows NT 10.0; Win64; x64) AppleWebKit/537.36 (KHTML, like Gecko) Chrome/90.0.4430.93 Safari/537.36
Accept: text/css,*/*;q=0.1
Sec-Fetch-Site: cross-site
Sec-Fetch-Mode: no-cors
Sec-Fetch-Dest: style
Referer: https://www.flipkart.com/
Accept-Encoding: gzip, deflate, br
Accept-Language: en-US,en;q=0.9
----
--Response 
HTTP/1.1 200
content-type: text/css
etag: W/\"39851ae67b2350c3fed9ab79258ef826\"
access-control-allow-origin: *
access-control-allow-credentials: true
access-control-allow-headers: viewport-width, dpr
x-origin-cache-status: MISS
content-encoding: br
content-length: 34908
cache-control: max-age=315209063
expires: Sat, 20 Mar 2032 12:13:39 GMT
date: Fri, 25 Mar 2022 06:09:16 GMT
----
--Request 
GET https://static-assets-web.flixcart.com/www/linchpin/fk-cp-zion/js/runtime.95858ad1.js
Host: static-assets-web.flixcart.com
sec-ch-ua: \" Not A;Brand\";v=\"99\", \"Chromium\";v=\"90\"
Origin: https://www.flipkart.com
sec-ch-ua-mobile: ?0
User-Agent: Mozilla/5.0 (Windows NT 10.0; Win64; x64) AppleWebKit/537.36 (KHTML, like Gecko) Chrome/90.0.4430.93 Safari/537.36
Accept: */*
Sec-Fetch-Site: cross-site
Sec-Fetch-Mode: cors
Sec-Fetch-Dest: script
Referer: https://www.flipkart.com/
Accept-Encoding: gzip, deflate, br
Accept-Language: en-US,en;q=0.9
----
--Response 
HTTP/1.1 200
content-type: text/javascript
access-control-allow-methods: GET
access-control-allow-origin: *
etag: W/\"4570729e6d69d64c5a76259ebe4c137e\"
access-control-expose-headers: Date
access-control-allow-credentials: true
access-control-allow-headers: viewport-width, dpr
x-origin-cache-status: HIT
content-encoding: br
content-length: 7324
cache-control: max-age=315209214
expires: Sat, 20 Mar 2032 12:13:58 GMT
date: Fri, 25 Mar 2022 06:07:04 GMT
----
--Request 
GET https://static-assets-web.flixcart.com/www/linchpin/fk-cp-zion/js/vendor.chunk.bf58a224.js
Host: static-assets-web.flixcart.com
sec-ch-ua: \" Not A;Brand\";v=\"99\", \"Chromium\";v=\"90\"
Origin: https://www.flipkart.com
sec-ch-ua-mobile: ?0
User-Agent: Mozilla/5.0 (Windows NT 10.0; Win64; x64) AppleWebKit/537.36 (KHTML, like Gecko) Chrome/90.0.4430.93 Safari/537.36
Accept: */*
Sec-Fetch-Site: cross-site
Sec-Fetch-Mode: cors
Sec-Fetch-Dest: script
Referer: https://www.flipkart.com/
Accept-Encoding: gzip, deflate, br
Accept-Language: en-US,en;q=0.9
----
--Response 
HTTP/1.1 200
content-type: text/javascript
access-control-allow-methods: GET
access-control-allow-origin: *
etag: W/\"fe526980a260079f95e4fb97f55d1ddd\"
access-control-expose-headers: Date
access-control-allow-credentials: true
access-control-allow-headers: viewport-width, dpr
x-origin-cache-status: HIT
content-encoding: br
cache-control: max-age=315209174
expires: Sat, 20 Mar 2032 12:13:18 GMT
date: Fri, 25 Mar 2022 06:07:04 GMT
content-length: 88486
----
--Request 
GET https://static-assets-web.flixcart.com/www/linchpin/fk-cp-zion/js/app_modules.chunk.ac48891f.js
Host: static-assets-web.flixcart.com
sec-ch-ua: \" Not A;Brand\";v=\"99\", \"Chromium\";v=\"90\"
Origin: https://www.flipkart.com
sec-ch-ua-mobile: ?0
User-Agent: Mozilla/5.0 (Windows NT 10.0; Win64; x64) AppleWebKit/537.36 (KHTML, like Gecko) Chrome/90.0.4430.93 Safari/537.36
Accept: */*
Sec-Fetch-Site: cross-site
Sec-Fetch-Mode: cors
Sec-Fetch-Dest: script
Referer: https://www.flipkart.com/
Accept-Encoding: gzip, deflate, br
Accept-Language: en-US,en;q=0.9
----
--Response 
HTTP/1.1 200
content-type: text/javascript
access-control-allow-methods: GET
access-control-allow-origin: *
etag: W/\"79f7592a6b989ea52464b6c6d3e75c6e\"
access-control-expose-headers: Date
access-control-allow-credentials: true
access-control-allow-headers: viewport-width, dpr
x-origin-cache-status: MISS
content-encoding: br
content-length: 65803
cache-control: max-age=315097522
expires: Fri, 19 Mar 2032 05:12:26 GMT
date: Fri, 25 Mar 2022 06:07:04 GMT
----
--Request 
GET https://static-assets-web.flixcart.com/www/linchpin/fk-cp-zion/js/app_common.chunk.db774788.js
Host: static-assets-web.flixcart.com
sec-ch-ua: \" Not A;Brand\";v=\"99\", \"Chromium\";v=\"90\"
Origin: https://www.flipkart.com
sec-ch-ua-mobile: ?0
User-Agent: Mozilla/5.0 (Windows NT 10.0; Win64; x64) AppleWebKit/537.36 (KHTML, like Gecko) Chrome/90.0.4430.93 Safari/537.36
Accept: */*
Sec-Fetch-Site: cross-site
Sec-Fetch-Mode: cors
Sec-Fetch-Dest: script
Referer: https://www.flipkart.com/
Accept-Encoding: gzip, deflate, br
Accept-Language: en-US,en;q=0.9
----
--Response 
HTTP/1.1 200
content-type: text/javascript
access-control-allow-methods: GET
access-control-allow-origin: *
etag: W/\"807a076e1c63dfe1e37ac3ff4f406778\"
access-control-expose-headers: Date
access-control-allow-credentials: true
access-control-allow-headers: viewport-width, dpr
x-origin-cache-status: HIT
content-encoding: br
content-length: 42319
cache-control: max-age=315209215
expires: Sat, 20 Mar 2032 12:13:59 GMT
date: Fri, 25 Mar 2022 06:07:04 GMT
----
--Request 
GET https://static-assets-web.flixcart.com/www/linchpin/fk-cp-zion/js/app.chunk.b7fa5477.js
Host: static-assets-web.flixcart.com
sec-ch-ua: \" Not A;Brand\";v=\"99\", \"Chromium\";v=\"90\"
Origin: https://www.flipkart.com
sec-ch-ua-mobile: ?0
User-Agent: Mozilla/5.0 (Windows NT 10.0; Win64; x64) AppleWebKit/537.36 (KHTML, like Gecko) Chrome/90.0.4430.93 Safari/537.36
Accept: */*
Sec-Fetch-Site: cross-site
Sec-Fetch-Mode: cors
Sec-Fetch-Dest: script
Referer: https://www.flipkart.com/
Accept-Encoding: gzip, deflate, br
Accept-Language: en-US,en;q=0.9
----
--Response 
HTTP/1.1 200
content-type: text/javascript
access-control-allow-methods: GET
access-control-allow-origin: *
etag: W/\"70861cb1779960675d8844ad6334eee5\"
access-control-expose-headers: Date
access-control-allow-credentials: true
access-control-allow-headers: viewport-width, dpr
x-origin-cache-status: HIT
content-encoding: br
cache-control: max-age=315209215
expires: Sat, 20 Mar 2032 12:13:59 GMT
date: Fri, 25 Mar 2022 06:07:04 GMT
content-length: 213970
----
--Request 
GET https://static-assets-web.flixcart.com/www/linchpin/fk-cp-zion/img/flipkart-plus_8d85f4.png
Host: static-assets-web.flixcart.com
sec-ch-ua: \" Not A;Brand\";v=\"99\", \"Chromium\";v=\"90\"
sec-ch-ua-mobile: ?0
User-Agent: Mozilla/5.0 (Windows NT 10.0; Win64; x64) AppleWebKit/537.36 (KHTML, like Gecko) Chrome/90.0.4430.93 Safari/537.36
Accept: image/avif,image/webp,image/apng,image/svg+xml,image/*,*/*;q=0.8
Sec-Fetch-Site: cross-site
Sec-Fetch-Mode: no-cors
Sec-Fetch-Dest: image
Referer: https://www.flipkart.com/
Accept-Encoding: gzip, deflate, br
Accept-Language: en-US,en;q=0.9
----
--Response 
HTTP/1.1 200
content-type: image/png
content-length: 5843
etag: \"4ee2f9a3c142aebace75edac20a49233\"
access-control-allow-origin: *
access-control-allow-credentials: true
access-control-allow-headers: viewport-width, dpr
x-origin-cache-status: MISS
accept-ranges: bytes
cache-control: max-age=299304965
expires: Thu, 18 Sep 2031 10:23:09 GMT
date: Fri, 25 Mar 2022 06:07:04 GMT
----
--Request 
GET https://static-assets-web.flixcart.com/www/linchpin/fk-cp-zion/img/plus_aef861.png
Host: static-assets-web.flixcart.com
sec-ch-ua: \" Not A;Brand\";v=\"99\", \"Chromium\";v=\"90\"
sec-ch-ua-mobile: ?0
User-Agent: Mozilla/5.0 (Windows NT 10.0; Win64; x64) AppleWebKit/537.36 (KHTML, like Gecko) Chrome/90.0.4430.93 Safari/537.36
Accept: image/avif,image/webp,image/apng,image/svg+xml,image/*,*/*;q=0.8
Sec-Fetch-Site: cross-site
Sec-Fetch-Mode: no-cors
Sec-Fetch-Dest: image
Referer: https://www.flipkart.com/
Accept-Encoding: gzip, deflate, br
Accept-Language: en-US,en;q=0.9
----
--Response 
HTTP/1.1 200
content-type: image/png
content-length: 1756
etag: \"b13a8b37134511798ad6e1392d5fbf31\"
access-control-allow-origin: *
access-control-allow-credentials: true
access-control-allow-headers: viewport-width, dpr
x-origin-cache-status: MISS
accept-ranges: bytes
cache-control: max-age=300742250
expires: Sun, 05 Oct 2031 01:37:54 GMT
date: Fri, 25 Mar 2022 06:07:04 GMT
----
--Request 
GET https://rukminim1.flixcart.com/image/128/128/jvwpfgw0/jean/a/j/z/36-2312011-roadster-original-imafgpscyvgfa38z.jpeg?q=70
Host: rukminim1.flixcart.com
sec-ch-ua: \" Not A;Brand\";v=\"99\", \"Chromium\";v=\"90\"
sec-ch-ua-mobile: ?0
User-Agent: Mozilla/5.0 (Windows NT 10.0; Win64; x64) AppleWebKit/537.36 (KHTML, like Gecko) Chrome/90.0.4430.93 Safari/537.36
Accept: image/avif,image/webp,image/apng,image/svg+xml,image/*,*/*;q=0.8
Sec-Fetch-Site: cross-site
Sec-Fetch-Mode: no-cors
Sec-Fetch-Dest: image
Referer: https://www.flipkart.com/
Accept-Encoding: gzip, deflate, br
Accept-Language: en-US,en;q=0.9
----
--Response 
HTTP/1.1 200 OK
Content-Type: image/webp
ETag: 4cf7463704c7906528a2324427a37dda
Content-Encoding: gzip
Content-Length: 1131
Cache-Control: max-age=2592000
Date: Fri, 25 Mar 2022 06:10:14 GMT
Connection: keep-alive
Vary: Accept-Encoding
Access-Control-Allow-Origin: *
Vary: Accept
----
--Request 
GET https://rukminim1.flixcart.com/image/128/128/jvwpfgw0/jean/a/j/z/28-2312011-roadster-original-imafgps9snhd5fqz.jpeg?q=70
Host: rukminim1.flixcart.com
sec-ch-ua: \" Not A;Brand\";v=\"99\", \"Chromium\";v=\"90\"
sec-ch-ua-mobile: ?0
User-Agent: Mozilla/5.0 (Windows NT 10.0; Win64; x64) AppleWebKit/537.36 (KHTML, like Gecko) Chrome/90.0.4430.93 Safari/537.36
Accept: image/avif,image/webp,image/apng,image/svg+xml,image/*,*/*;q=0.8
Sec-Fetch-Site: cross-site
Sec-Fetch-Mode: no-cors
Sec-Fetch-Dest: image
Referer: https://www.flipkart.com/
Accept-Encoding: gzip, deflate, br
Accept-Language: en-US,en;q=0.9
----
--Response 
HTTP/1.1 200 OK
Content-Type: image/webp
ETag: 49348c0eee9f83fd7da6c68192d1c4e8
Content-Encoding: gzip
Content-Length: 1345
Cache-Control: max-age=2592000
Date: Fri, 25 Mar 2022 06:10:14 GMT
Connection: keep-alive
Vary: Accept-Encoding
Access-Control-Allow-Origin: *
Vary: Accept
----
--Request 
GET https://rukminim1.flixcart.com/image/128/128/jvwpfgw0/jean/a/j/z/36-2312011-roadster-original-imafgps92qgvw2u9.jpeg?q=70
Host: rukminim1.flixcart.com
sec-ch-ua: \" Not A;Brand\";v=\"99\", \"Chromium\";v=\"90\"
sec-ch-ua-mobile: ?0
User-Agent: Mozilla/5.0 (Windows NT 10.0; Win64; x64) AppleWebKit/537.36 (KHTML, like Gecko) Chrome/90.0.4430.93 Safari/537.36
Accept: image/avif,image/webp,image/apng,image/svg+xml,image/*,*/*;q=0.8
Sec-Fetch-Site: cross-site
Sec-Fetch-Mode: no-cors
Sec-Fetch-Dest: image
Referer: https://www.flipkart.com/
Accept-Encoding: gzip, deflate, br
Accept-Language: en-US,en;q=0.9
----
--Response 
HTTP/1.1 200 OK
Content-Type: image/webp
ETag: 8f3e0b5ab3dacf1540fb960a394930bc
Content-Encoding: gzip
Content-Length: 1089
Cache-Control: max-age=2592000
Date: Fri, 25 Mar 2022 06:10:14 GMT
Connection: keep-alive
Vary: Accept-Encoding
Access-Control-Allow-Origin: *
Vary: Accept
----
--Request 
GET https://rukminim1.flixcart.com/image/128/128/jvwpfgw0/jean/a/j/z/34-2312011-roadster-original-imafgpsagfsfmhcg.jpeg?q=70
Host: rukminim1.flixcart.com
sec-ch-ua: \" Not A;Brand\";v=\"99\", \"Chromium\";v=\"90\"
sec-ch-ua-mobile: ?0
User-Agent: Mozilla/5.0 (Windows NT 10.0; Win64; x64) AppleWebKit/537.36 (KHTML, like Gecko) Chrome/90.0.4430.93 Safari/537.36
Accept: image/avif,image/webp,image/apng,image/svg+xml,image/*,*/*;q=0.8
Sec-Fetch-Site: cross-site
Sec-Fetch-Mode: no-cors
Sec-Fetch-Dest: image
Referer: https://www.flipkart.com/
Accept-Encoding: gzip, deflate, br
Accept-Language: en-US,en;q=0.9
----
--Response 
HTTP/1.1 200 OK
Content-Type: image/webp
ETag: 57bdc6807354d7b5708b8b10f1433521
Content-Encoding: gzip
Content-Length: 1301
Cache-Control: max-age=2592000
Date: Fri, 25 Mar 2022 06:10:14 GMT
Connection: keep-alive
Vary: Accept-Encoding
Access-Control-Allow-Origin: *
Vary: Accept
----
--Request 
GET https://rukminim1.flixcart.com/image/128/128/jvwpfgw0/jean/a/j/z/34-2312011-roadster-original-imafgpsbrzcnnkqc.jpeg?q=70
Host: rukminim1.flixcart.com
sec-ch-ua: \" Not A;Brand\";v=\"99\", \"Chromium\";v=\"90\"
sec-ch-ua-mobile: ?0
User-Agent: Mozilla/5.0 (Windows NT 10.0; Win64; x64) AppleWebKit/537.36 (KHTML, like Gecko) Chrome/90.0.4430.93 Safari/537.36
Accept: image/avif,image/webp,image/apng,image/svg+xml,image/*,*/*;q=0.8
Sec-Fetch-Site: cross-site
Sec-Fetch-Mode: no-cors
Sec-Fetch-Dest: image
Referer: https://www.flipkart.com/
Accept-Encoding: gzip, deflate, br
Accept-Language: en-US,en;q=0.9
----
--Response 
HTTP/1.1 200 OK
Content-Type: image/webp
ETag: 7080fc1350d2ec4b716d801ee7e3bfc2
Content-Encoding: gzip
Content-Length: 1527
Cache-Control: max-age=2592000
Date: Fri, 25 Mar 2022 06:10:14 GMT
Connection: keep-alive
Vary: Accept-Encoding
Access-Control-Allow-Origin: *
Vary: Accept
----
--Request 
GET https://static-assets-web.flixcart.com/www/linchpin/fk-cp-zion/img/info-basic_6c1a38.svg
Host: static-assets-web.flixcart.com
sec-ch-ua: \" Not A;Brand\";v=\"99\", \"Chromium\";v=\"90\"
sec-ch-ua-mobile: ?0
User-Agent: Mozilla/5.0 (Windows NT 10.0; Win64; x64) AppleWebKit/537.36 (KHTML, like Gecko) Chrome/90.0.4430.93 Safari/537.36
Accept: image/avif,image/webp,image/apng,image/svg+xml,image/*,*/*;q=0.8
Sec-Fetch-Site: cross-site
Sec-Fetch-Mode: no-cors
Sec-Fetch-Dest: image
Referer: https://www.flipkart.com/
Accept-Encoding: gzip, deflate, br
Accept-Language: en-US,en;q=0.9
----
--Response 
HTTP/1.1 200
content-type: image/svg+xml
etag: W/\"ea3ba2fba3f19ad56913790242d46edb\"
access-control-allow-origin: *
access-control-allow-credentials: true
access-control-allow-headers: viewport-width, dpr
x-origin-cache-status: MISS
content-encoding: gzip
content-length: 546
cache-control: max-age=300742227
expires: Sun, 05 Oct 2031 01:39:43 GMT
date: Fri, 25 Mar 2022 06:09:16 GMT
vary: Accept-Encoding
----
--Request 
GET https://static-assets-web.flixcart.com/www/linchpin/fk-cp-zion/img/placeholder_fcebae.svg
Host: static-assets-web.flixcart.com
sec-ch-ua: \" Not A;Brand\";v=\"99\", \"Chromium\";v=\"90\"
sec-ch-ua-mobile: ?0
User-Agent: Mozilla/5.0 (Windows NT 10.0; Win64; x64) AppleWebKit/537.36 (KHTML, like Gecko) Chrome/90.0.4430.93 Safari/537.36
Accept: image/avif,image/webp,image/apng,image/svg+xml,image/*,*/*;q=0.8
Sec-Fetch-Site: cross-site
Sec-Fetch-Mode: no-cors
Sec-Fetch-Dest: image
Referer: https://www.flipkart.com/
Accept-Encoding: gzip, deflate, br
Accept-Language: en-US,en;q=0.9
----
--Response 
HTTP/1.1 200
content-type: image/svg+xml
etag: W/\"9951d025c3080be858d2639661085aff\"
access-control-allow-origin: *
access-control-allow-credentials: true
access-control-allow-headers: viewport-width, dpr
x-origin-cache-status: MISS
content-encoding: gzip
content-length: 562
cache-control: max-age=300593868
expires: Fri, 03 Oct 2031 08:24:52 GMT
date: Fri, 25 Mar 2022 06:07:04 GMT
vary: Accept-Encoding
----
--Request 
GET https://static-assets-web.flixcart.com/www/linchpin/fk-cp-zion/img/fa_62673a.png
Host: static-assets-web.flixcart.com
sec-ch-ua: \" Not A;Brand\";v=\"99\", \"Chromium\";v=\"90\"
sec-ch-ua-mobile: ?0
User-Agent: Mozilla/5.0 (Windows NT 10.0; Win64; x64) AppleWebKit/537.36 (KHTML, like Gecko) Chrome/90.0.4430.93 Safari/537.36
Accept: image/avif,image/webp,image/apng,image/svg+xml,image/*,*/*;q=0.8
Sec-Fetch-Site: cross-site
Sec-Fetch-Mode: no-cors
Sec-Fetch-Dest: image
Referer: https://www.flipkart.com/
Accept-Encoding: gzip, deflate, br
Accept-Language: en-US,en;q=0.9
----
--Response 
HTTP/1.1 200
content-type: image/png
content-length: 3926
etag: \"8b4b5904bee803d4c8a9782ff212470f\"
access-control-allow-origin: *
access-control-allow-credentials: true
access-control-allow-headers: viewport-width, dpr
x-origin-cache-status: MISS
accept-ranges: bytes
cache-control: max-age=300354130
expires: Tue, 30 Sep 2031 13:49:54 GMT
date: Fri, 25 Mar 2022 06:07:44 GMT
----
--Request 
GET https://rukminim1.flixcart.com/www/36/36/promos/06/09/2016/c22c9fc4-0555-4460-8401-bf5c28d7ba29.png?q=90
Host: rukminim1.flixcart.com
sec-ch-ua: \" Not A;Brand\";v=\"99\", \"Chromium\";v=\"90\"
sec-ch-ua-mobile: ?0
User-Agent: Mozilla/5.0 (Windows NT 10.0; Win64; x64) AppleWebKit/537.36 (KHTML, like Gecko) Chrome/90.0.4430.93 Safari/537.36
Accept: image/avif,image/webp,image/apng,image/svg+xml,image/*,*/*;q=0.8
Sec-Fetch-Site: cross-site
Sec-Fetch-Mode: no-cors
Sec-Fetch-Dest: image
Referer: https://www.flipkart.com/
Accept-Encoding: gzip, deflate, br
Accept-Language: en-US,en;q=0.9
----
--Response 
HTTP/1.1 200 OK
Content-Type: image/webp
ETag: 220373d64db072e8c2a56dbd2ab965fc
Content-Encoding: gzip
Content-Length: 807
Cache-Control: max-age=2592000
Date: Fri, 25 Mar 2022 06:09:16 GMT
Vary: Accept-Encoding
Access-Control-Allow-Origin: *
Vary: Accept
----
--Request 
GET https://static-assets-web.flixcart.com/www/linchpin/fk-cp-zion/img/payment-method_69e7ec.svg
Host: static-assets-web.flixcart.com
sec-ch-ua: \" Not A;Brand\";v=\"99\", \"Chromium\";v=\"90\"
sec-ch-ua-mobile: ?0
User-Agent: Mozilla/5.0 (Windows NT 10.0; Win64; x64) AppleWebKit/537.36 (KHTML, like Gecko) Chrome/90.0.4430.93 Safari/537.36
Accept: image/avif,image/webp,image/apng,image/svg+xml,image/*,*/*;q=0.8
Sec-Fetch-Site: cross-site
Sec-Fetch-Mode: no-cors
Sec-Fetch-Dest: image
Referer: https://www.flipkart.com/
Accept-Encoding: gzip, deflate, br
Accept-Language: en-US,en;q=0.9
----
--Response 
HTTP/1.1 200
content-type: image/svg+xml
etag: W/\"c454fbcb29be533fa70c85971c22cc96\"
access-control-allow-origin: *
access-control-allow-credentials: true
access-control-allow-headers: viewport-width, dpr
x-origin-cache-status: MISS
content-encoding: gzip
content-length: 16540
cache-control: max-age=299569164
expires: Sun, 21 Sep 2031 11:46:28 GMT
date: Fri, 25 Mar 2022 06:07:04 GMT
vary: Accept-Encoding
----
--Request 
GET https://rukminim1.flixcart.com/lockin/100/24/images/CCO__PP_2019-07-14.png?q=50
Host: rukminim1.flixcart.com
sec-ch-ua: \" Not A;Brand\";v=\"99\", \"Chromium\";v=\"90\"
sec-ch-ua-mobile: ?0
User-Agent: Mozilla/5.0 (Windows NT 10.0; Win64; x64) AppleWebKit/537.36 (KHTML, like Gecko) Chrome/90.0.4430.93 Safari/537.36
Accept: image/avif,image/webp,image/apng,image/svg+xml,image/*,*/*;q=0.8
Sec-Fetch-Site: cross-site
Sec-Fetch-Mode: no-cors
Sec-Fetch-Dest: image
Referer: https://www.flipkart.com/
Accept-Encoding: gzip, deflate, br
Accept-Language: en-US,en;q=0.9
----
--Response 
HTTP/1.1 200 OK
Content-Type: image/webp
ETag: 74ba1fcc7deda4dacf48d895c8c40b65
Content-Encoding: gzip
Content-Length: 517
Cache-Control: max-age=2592000
Date: Fri, 25 Mar 2022 06:09:16 GMT
Vary: Accept-Encoding
Access-Control-Allow-Origin: *
Vary: Accept
----
--Request 
GET https://rukminim1.flixcart.com/www/112/112/promos/06/04/2020/9c275f1c-a64d-4858-ab3a-27302fbdcbe5.png?q=90
Host: rukminim1.flixcart.com
sec-ch-ua: \" Not A;Brand\";v=\"99\", \"Chromium\";v=\"90\"
sec-ch-ua-mobile: ?0
User-Agent: Mozilla/5.0 (Windows NT 10.0; Win64; x64) AppleWebKit/537.36 (KHTML, like Gecko) Chrome/90.0.4430.93 Safari/537.36
Accept: image/avif,image/webp,image/apng,image/svg+xml,image/*,*/*;q=0.8
Sec-Fetch-Site: cross-site
Sec-Fetch-Mode: no-cors
Sec-Fetch-Dest: image
Referer: https://www.flipkart.com/
Accept-Encoding: gzip, deflate, br
Accept-Language: en-US,en;q=0.9
----
--Response 
HTTP/1.1 200 OK
Content-Type: image/webp
ETag: 12bc1741dad9aa047221791b3bd516fb
Content-Encoding: gzip
Content-Length: 973
Cache-Control: max-age=2592000
Date: Fri, 25 Mar 2022 06:10:15 GMT
Connection: keep-alive
Vary: Accept-Encoding
Access-Control-Allow-Origin: *
Vary: Accept
----
--Request 
GET https://rukminim1.flixcart.com/www/100/10/promos/01/12/2018/8aa01ab4-de88-4a46-9d93-5c7f3ebac2df.png?q=50
Host: rukminim1.flixcart.com
sec-ch-ua: \" Not A;Brand\";v=\"99\", \"Chromium\";v=\"90\"
sec-ch-ua-mobile: ?0
User-Agent: Mozilla/5.0 (Windows NT 10.0; Win64; x64) AppleWebKit/537.36 (KHTML, like Gecko) Chrome/90.0.4430.93 Safari/537.36
Accept: image/avif,image/webp,image/apng,image/svg+xml,image/*,*/*;q=0.8
Sec-Fetch-Site: cross-site
Sec-Fetch-Mode: no-cors
Sec-Fetch-Dest: image
Referer: https://www.flipkart.com/
Accept-Encoding: gzip, deflate, br
Accept-Language: en-US,en;q=0.9
----
--Response 
HTTP/1.1 200 OK
Content-Type: image/webp
ETag: b6d1ccccd4883a2d2923f3a911cb1f64
Content-Encoding: gzip
Content-Length: 181
Cache-Control: max-age=2592000
Date: Fri, 25 Mar 2022 06:09:16 GMT
Vary: Accept-Encoding
Access-Control-Allow-Origin: *
Vary: Accept
----

