--Request 
POST https://2.rome.api.flipkart.com/api/1/fdp
Host: 2.rome.api.flipkart.com
sec-ch-ua: \" Not A;Brand\";v=\"99\", \"Chromium\";v=\"90\"
X-User-Agent: Mozilla/5.0 (Windows NT 10.0; Win64; x64) AppleWebKit/537.36 (KHTML, like Gecko) Chrome/90.0.4430.93 Safari/537.36 FKUA/website/42/website/Desktop
sec-ch-ua-mobile: ?0
User-Agent: Mozilla/5.0 (Windows NT 10.0; Win64; x64) AppleWebKit/537.36 (KHTML, like Gecko) Chrome/90.0.4430.93 Safari/537.36
Content-Type: application/json
Accept: */*
Origin: https://www.flipkart.com
Sec-Fetch-Site: same-site
Sec-Fetch-Mode: cors
Sec-Fetch-Dest: empty
Referer: https://www.flipkart.com/
Accept-Encoding: gzip, deflate, br
Accept-Language: en-US,en;q=0.9
Cookie: T=TI164818842216200180224434770721730017262782886130882680036219971948; Network-Type=4g; pxcts=ccf641b1-ac01-11ec-a8de-68696d704d4a; _pxvid=ccf62de1-ac01-11ec-a8de-68696d704d4a; AMCVS_17EB401053DAF4840A490D4C%40AdobeOrg=1; AMCV_17EB401053DAF4840A490D4C%40AdobeOrg=-227196251%7CMCIDTS%7C19077%7CMCMID%7C84290952911474648655406836606388072339%7CMCAAMLH-1648793228%7C12%7CMCAAMB-1648793228%7C6G1ynYcLPuiQxYZrsz_pkqfLG9yMXBpb2zX5dvJdYQJzPXImdj0y%7CMCOPTOUT-1648195629s%7CNONE%7CMCAID%7CNONE; SN=VI67A54AEFB9EA4D449CD35DC8C7A1990D.TOK4AA1E8AEC9A74269BBEF1F63E28FC891.1648188660.LI; _px3=f4a5bcd51052c6c1d980eb386d032249d81da137b90116598bf8a1c8852aa7d3:j9ZVrwTGLxl3BCKQ5ee4gtHyxCK/v6E1wUyypyN+lwsakpDE1kXW6nbNq0XTGeHyBb4UJq691NeGkhE0f701Pw==:1000:oKYl1tZat/nod5gkBrlAw58oZtycvnrJIbwGxxQygz8yKnpVwovcYQYzFR4BPaklCBAPas/pVH6fI1L1tGICMZMXtjQRTFDClfIz3VybCvaOuYCZrit6zeri9qGluGt12OihUT9Z/XoLXECbk4r9i7u8tZHlB7cT+xhs1RBMZj0tTPPqLdKR4MnkJAho2tQuAgU4zn0szsof+/nmDLaktA==; S=d1t17RzMHNzE/GD8/Vz9mBBctAGEGnJWKIrZQAYl/eLGNuzPDrPQEKdNUBqIym/6EURqaEeb47fuQwJ2gW8wyp8D4Vw==; s_sq=flipkart-prd%3D%2526pid%253Dwww.flipkart.com%25253Alakm-forever-matte-liquid-lip-colour%25253Ap%25253Aitm82829011c7db7%2526pidt%253D1%2526oid%253DfunctionEr%252528%252529%25257B%25257D%2526oidt%253D2%2526ot%253DSUBMIT
----
 POSTDATA [{"nc":{"ssid":"j3m79krww00000001648188654598","iid":"en_bVvms8K4OCiNmbKQjKNCW9HfPUsEThA7iSrUjfsd6FZQizYUaQaanLpI0HNGjAN9vQ28a7wiSYlc031yUUoOLw==","fm":"Search","pn":"pp","pt":"pp","ppt":"sp","ppn":"sp","mpid":"FLIPKART","ss":"ProductPageContext"},"e":[{"en":"PSI","fid":"f2f4a147-2a55-405b-8c6b-20f27807837a.LSKFM797QWECHKRX","t":1648188667656},{"en":"PWI","fid":"f2f4a147-2a55-405b-8c6b-20f27807837a.LSKFM797QWECHKRX","t":1648188667656},{"en":"PV","ib":true,"id":false,"cat":"Makeup","t":1648188667656},{"en":"DCI","iid":"lo_cco:57560330-628e-791f-4d78-f8b27a67df59.ct:COIN_CONVERSION_OVERLAY;","wk":"20.overlayCard.PROMOTIONS_13","ct":"overlayCard","p":"1","t":1648188667706,"st":1648188666429,"f":true,"pv":78},{"en":"DCI","iid":"6bd757a3-db39-4ec9-8a39-8d0a3ecd84d4.LSKFM797YFHKHPTH.lipstick","wk":"32_22","ct":"BrandChatIcon:BrandChatDesktop","p":22,"t":1648188667706,"st":1648188664111,"f":true,"pv":100},{"en":"ATCC","iid":"f2f4a147-2a55-405b-8c6b-20f27807837a.LSKFM797QWECHKRX","lid":"LSTLSKFM797QWECHKRXKZKS9A","ct":"PAGE","t":1648188671162}]}]
--Response 
HTTP/1.1 200 OK
Server: nginx
Date: Fri, 25 Mar 2022 06:11:11 GMT
Content-Type: application/json
Content-Length: 0
Access-Control-Allow-Origin: https://www.flipkart.com
Access-Control-Allow-Credentials: true
x-e-id: 10.51.66.11
----

