--Request 
POST https://www.google-analytics.com/j/collect?v=1&_v=j96&a=2013098764&t=pageview&_s=1&dl=https%3A%2F%2Fwww.cavisson.com%2Fcavisson-systems%2F&ul=en-us&de=UTF-8&dt=About%20Cavisson%20-%20Performance%20Testing%2C%20Monitoring%20%26%20Diagnostics%20Software%20%7C%20Cavisson&sd=24-bit&sr=1366x768&vp=1349x607&je=0&_u=AACAAEABAAAAAC~&jid=&gjid=&cid=1889190842.1648734614&tid=UA-77809548-1&_gid=374871240.1648734614&_slc=1&z=253634356
Host: www.google-analytics.com
sec-ch-ua: \" Not A;Brand\";v=\"99\", \"Chromium\";v=\"90\"
sec-ch-ua-mobile: ?0
User-Agent: Mozilla/5.0 (Windows NT 10.0; WOW64) AppleWebKit/537.36 (KHTML, like Gecko) Chrome/90.0.4430.93 Safari/537.36
Content-Type: text/plain
Accept: */*
Origin: https://www.cavisson.com
Sec-Fetch-Site: cross-site
Sec-Fetch-Mode: cors
Sec-Fetch-Dest: empty
Accept-Encoding: gzip, deflate, br
Accept-Language: en-US,en;q=0.9
----
 POSTDATA 
--Response 
HTTP/1.1 200
access-control-allow-origin: https://www.cavisson.com
date: Thu, 31 Mar 2022 13:50:18 GMT
pragma: no-cache
expires: Fri, 01 Jan 1990 00:00:00 GMT
cache-control: no-cache, no-store, must-revalidate
last-modified: Sun, 17 May 1998 03:00:00 GMT
access-control-allow-credentials: true
x-content-type-options: nosniff
content-type: text/plain
cross-origin-resource-policy: cross-origin
server: Golfe2
content-length: 2
alt-svc: h3=\":443\"; ma=2592000,h3-29=\":443\"; ma=2592000,h3-Q050=\":443\"; ma=2592000,h3-Q046=\":443\"; ma=2592000,h3-Q043=\":443\"; ma=2592000,quic=\":443\"; ma=2592000; v=\"46,43\"
----
--Request 
GET https://www.gstatic.com/call-tracking/call-tracking_7.js
Host: www.gstatic.com
sec-ch-ua: \" Not A;Brand\";v=\"99\", \"Chromium\";v=\"90\"
sec-ch-ua-mobile: ?0
User-Agent: Mozilla/5.0 (Windows NT 10.0; WOW64) AppleWebKit/537.36 (KHTML, like Gecko) Chrome/90.0.4430.93 Safari/537.36
Accept: */*
Sec-Fetch-Site: cross-site
Sec-Fetch-Mode: no-cors
Sec-Fetch-Dest: script
Accept-Encoding: gzip, deflate, br
Accept-Language: en-US,en;q=0.9
----
--Response 
HTTP/1.1 200
accept-ranges: bytes
vary: Accept-Encoding
content-encoding: gzip
content-security-policy-report-only: require-trusted-types-for 'script'; report-uri https://csp.withgoogle.com/csp/ads-telephony
cross-origin-resource-policy: cross-origin
cross-origin-opener-policy: same-origin; report-to=\"ads-telephony\"
report-to: {\"group\":\"ads-telephony\",\"max_age\":2592000,\"endpoints\":[{\"url\":\"https://csp.withgoogle.com/csp/report-to/ads-telephony\"}]}
content-length: 21020
x-content-type-options: nosniff
server: sffe
x-xss-protection: 0
date: Tue, 29 Mar 2022 22:44:38 GMT
expires: Wed, 29 Mar 2023 22:44:38 GMT
cache-control: public, max-age=31536000
age: 140740
last-modified: Wed, 03 Feb 2021 22:45:00 GMT
content-type: text/javascript
alt-svc: h3=\":443\"; ma=2592000,h3-29=\":443\"; ma=2592000,h3-Q050=\":443\"; ma=2592000,h3-Q046=\":443\"; ma=2592000,h3-Q043=\":443\"; ma=2592000,quic=\":443\"; ma=2592000; v=\"46,43\"
----
--Request 
GET https://px.ads.linkedin.com/collect?v=2&fmt=js&pid=775971&time=1648734619589&url=https%3A%2F%2Fwww.cavisson.com%2Fcavisson-systems%2F
Host: px.ads.linkedin.com
sec-ch-ua: \" Not A;Brand\";v=\"99\", \"Chromium\";v=\"90\"
sec-ch-ua-mobile: ?0
User-Agent: Mozilla/5.0 (Windows NT 10.0; WOW64) AppleWebKit/537.36 (KHTML, like Gecko) Chrome/90.0.4430.93 Safari/537.36
Accept: image/avif,image/webp,image/apng,image/svg+xml,image/*,*/*;q=0.8
Sec-Fetch-Site: cross-site
Sec-Fetch-Mode: no-cors
Sec-Fetch-Dest: image
Accept-Encoding: gzip, deflate, br
Accept-Language: en-US,en;q=0.9
Cookie: li_sugr=dc7e6c67-286c-4863-9146-c9821c7bbab4; lang=v=2&lang=en-us; bcookie=\"v=2&208f31f4-c3a5-47bd-8bdf-bca295d30e0e\"; lidc=\"b=OGST02:s=O:r=O:a=O:p=O:g=2636:u=1:x=1:i=1648734613:t=1648821013:v=2:sig=AQHiQ0lkOjw3LVEUaUQIQrdma6u92Dp7\"; UserMatchHistory=AQI64-rPBG_eugAAAX_gPbHfPNlporZHF_r53gcDOTftO8GwRAbNjgYz9m31iQBZPmg9J-Zk-DSW0A; AnalyticsSyncHistory=AQI7KQicxseNrAAAAX_gPbHfClHV7PZ5NtBZwD7lSDWEA3kMlTQgIYy5_45LhlPwYj0_GLEjo7gh8bhBhUvb-Q; lang=v=2&lang=en-us
----
--Response 
HTTP/1.1 302
location: https://p.adsymptotic.com/d/px/?_pid=16218&_psign=0aa5badf92527f7732e22463d6fa4dbc&coopa=0&gdpr=0&gdpr_consent=&_puuid=dc7e6c67-286c-4863-9146-c9821c7bbab4
set-cookie: li_sugr=dc7e6c67-286c-4863-9146-c9821c7bbab4; Max-Age=7776000; Expires=Wed, 29 Jun 2022 13:50:19 GMT; SameSite=None; Path=/; Domain=.linkedin.com; Secure
linkedin-action: 1
x-li-fabric: prod-lor1
x-li-pop: afd-prod-lor1-x
x-li-proto: http/2
x-li-uuid: AAXbg/FMZVW56/7aNveDJQ==
x-cache: CONFIG_NOCACHE
x-msedge-ref: Ref A: B6CE71565E5543C592D3350619705BD7 Ref B: DEL01EDGE0320 Ref C: 2022-03-31T13:50:18Z
date: Thu, 31 Mar 2022 13:50:18 GMT
content-length: 0
----
--Request 
GET https://www.google.com/recaptcha/api2/anchor?ar=1&k=6Ldt8qEUAAAAAH-QhEOUuqZ3-IqCap0nlTw6xrli&co=aHR0cHM6Ly93d3cuY2F2aXNzb24uY29tOjQ0Mw..&hl=en&v=gZWLhEUEJFxEhoT5hpjn2xHK&size=normal&cb=vbegwr97i2jg
Host: www.google.com
Upgrade-Insecure-Requests: 1
User-Agent: Mozilla/5.0 (Windows NT 10.0; WOW64) AppleWebKit/537.36 (KHTML, like Gecko) Chrome/90.0.4430.93 Safari/537.36
Accept: text/html,application/xhtml+xml,application/xml;q=0.9,image/avif,image/webp,image/apng,*/*;q=0.8,application/signed-exchange;v=b3;q=0.9
Sec-Fetch-Site: cross-site
Sec-Fetch-Mode: navigate
Sec-Fetch-Dest: iframe
Accept-Encoding: gzip, deflate, br
Accept-Language: en-US,en;q=0.9
----
--Response 
HTTP/1.1 200
cross-origin-resource-policy: cross-origin
cross-origin-embedder-policy: require-corp
report-to: {\"group\":\"recaptcha\",\"max_age\":2592000,\"endpoints\":[{\"url\":\"https://csp.withgoogle.com/csp/report-to/recaptcha\"}]}
content-type: text/html; charset=utf-8
cache-control: no-cache, no-store, max-age=0, must-revalidate
pragma: no-cache
expires: Mon, 01 Jan 1990 00:00:00 GMT
date: Thu, 31 Mar 2022 13:50:18 GMT
content-security-policy: script-src 'report-sample' 'nonce-+ktBBC/BoFsVBVOyzCN/Kg' 'unsafe-inline' 'strict-dynamic' https: http: 'unsafe-eval';object-src 'none';base-uri 'self';report-uri https://csp.withgoogle.com/csp/recaptcha/1
content-encoding: gzip
x-content-type-options: nosniff
x-xss-protection: 1; mode=block
content-length: 22651
server: GSE
alt-svc: h3=\":443\"; ma=2592000,h3-29=\":443\"; ma=2592000,h3-Q050=\":443\"; ma=2592000,h3-Q046=\":443\"; ma=2592000,h3-Q043=\":443\"; ma=2592000,quic=\":443\"; ma=2592000; v=\"46,43\"
----
--Request 
GET https://www.googleadservices.com/pagead/conversion/846414309/wcm?cc=ZZ&dn=16503197412&cl=irwhCLex05cBEOWDzZMD&ref=https%3A%2F%2Fwww.cavisson.com%2F&ct_eid=2
Host: www.googleadservices.com
sec-ch-ua: \" Not A;Brand\";v=\"99\", \"Chromium\";v=\"90\"
sec-ch-ua-mobile: ?0
User-Agent: Mozilla/5.0 (Windows NT 10.0; WOW64) AppleWebKit/537.36 (KHTML, like Gecko) Chrome/90.0.4430.93 Safari/537.36
Accept: */*
Origin: https://www.cavisson.com
Sec-Fetch-Site: cross-site
Sec-Fetch-Mode: cors
Sec-Fetch-Dest: empty
Accept-Encoding: gzip, deflate, br
Accept-Language: en-US,en;q=0.9
----
--Response 
HTTP/1.1 302
p3p: policyref=\"https://www.googleadservices.com/pagead/p3p.xml\", CP=\"NOI DEV PSA PSD IVA IVD OTP OUR OTR IND OTC\"
timing-allow-origin: *
cross-origin-resource-policy: cross-origin
location: https://www.google.co.in/pagead/attribution/wcm?cc=ZZ&dn=16503197412&cl=irwhCLex05cBEOWDzZMD
access-control-allow-origin: https://www.cavisson.com
access-control-allow-credentials: true
content-type: text/html; charset=UTF-8
x-content-type-options: nosniff
date: Thu, 31 Mar 2022 13:50:19 GMT
server: cafe
content-length: 0
x-xss-protection: 0
alt-svc: h3=\":443\"; ma=2592000,h3-29=\":443\"; ma=2592000,h3-Q050=\":443\"; ma=2592000,h3-Q046=\":443\"; ma=2592000,h3-Q043=\":443\"; ma=2592000,quic=\":443\"; ma=2592000; v=\"46,43\"
----
--Request 
GET https://www.gstatic.com/recaptcha/releases/gZWLhEUEJFxEhoT5hpjn2xHK/recaptcha__en.js
Host: www.gstatic.com
sec-ch-ua: \" Not A;Brand\";v=\"99\", \"Chromium\";v=\"90\"
sec-ch-ua-mobile: ?0
User-Agent: Mozilla/5.0 (Windows NT 10.0; WOW64) AppleWebKit/537.36 (KHTML, like Gecko) Chrome/90.0.4430.93 Safari/537.36
Accept: */*
Sec-Fetch-Site: cross-site
Sec-Fetch-Mode: no-cors
Sec-Fetch-Dest: script
Referer: https://www.google.com/
Accept-Encoding: gzip, deflate, br
Accept-Language: en-US,en;q=0.9
----
--Response 
HTTP/1.1 200
accept-ranges: bytes
vary: Accept-Encoding
content-encoding: gzip
access-control-allow-origin: *
content-security-policy-report-only: require-trusted-types-for 'script'; report-uri https://csp.withgoogle.com/csp/recaptcha
cross-origin-resource-policy: cross-origin
cross-origin-opener-policy: same-origin-allow-popups; report-to=\"recaptcha\"
report-to: {\"group\":\"recaptcha\",\"max_age\":2592000,\"endpoints\":[{\"url\":\"https://csp.withgoogle.com/csp/report-to/recaptcha\"}]}
content-length: 144576
x-content-type-options: nosniff
server: sffe
x-xss-protection: 0
date: Mon, 28 Mar 2022 16:45:59 GMT
expires: Tue, 28 Mar 2023 16:45:59 GMT
cache-control: public, max-age=31536000
last-modified: Mon, 28 Mar 2022 04:22:14 GMT
content-type: text/javascript
age: 248654
alt-svc: h3=\":443\"; ma=2592000,h3-29=\":443\"; ma=2592000,h3-Q050=\":443\"; ma=2592000,h3-Q046=\":443\"; ma=2592000,h3-Q043=\":443\"; ma=2592000,quic=\":443\"; ma=2592000; v=\"46,43\"
----

