--Request 
POST https://www.google-analytics.com/j/collect?v=1&_v=j96&a=1419885723&t=pageview&_s=1&dl=https%3A%2F%2Fwww.cavisson.com%2Fcavisson-systems-performance-intelligence-platform%2F&ul=en-us&de=UTF-8&dt=Performance%20Intelligence%20Platform%20for%20Mission%20Critical%20Applications&sd=24-bit&sr=1366x768&vp=1349x607&je=0&_u=AACAAEABAAAAAC~&jid=&gjid=&cid=1937923036.1648733738&tid=UA-77809548-1&_gid=535768388.1648733738&_slc=1&z=674071883
Host: www.google-analytics.com
sec-ch-ua: \" Not A;Brand\";v=\"99\", \"Chromium\";v=\"90\"
sec-ch-ua-mobile: ?0
User-Agent: Mozilla/5.0 (Windows NT 10.0; WOW64) AppleWebKit/537.36 (KHTML, like Gecko) Chrome/90.0.4430.93 Safari/537.36
Content-Type: text/plain
Accept: */*
Origin: https://www.cavisson.com
Sec-Fetch-Site: cross-site
Sec-Fetch-Mode: cors
Sec-Fetch-Dest: empty
Accept-Encoding: gzip, deflate, br
Accept-Language: en-US,en;q=0.9
----
 POSTDATA 
--Response 
HTTP/1.1 200
access-control-allow-origin: https://www.cavisson.com
date: Thu, 31 Mar 2022 13:35:52 GMT
pragma: no-cache
expires: Fri, 01 Jan 1990 00:00:00 GMT
cache-control: no-cache, no-store, must-revalidate
last-modified: Sun, 17 May 1998 03:00:00 GMT
access-control-allow-credentials: true
x-content-type-options: nosniff
content-type: text/plain
cross-origin-resource-policy: cross-origin
server: Golfe2
content-length: 2
alt-svc: h3=\":443\"; ma=2592000,h3-29=\":443\"; ma=2592000,h3-Q050=\":443\"; ma=2592000,h3-Q046=\":443\"; ma=2592000,h3-Q043=\":443\"; ma=2592000,quic=\":443\"; ma=2592000; v=\"46,43\"
----

